<?xml version="1.0" encoding="UTF-8" standalone="no"?>
<!-- Created with Inkscape (http://www.inkscape.org/) -->

<svg
   xmlns:dc="http://purl.org/dc/elements/1.1/"
   xmlns:cc="http://creativecommons.org/ns#"
   xmlns:rdf="http://www.w3.org/1999/02/22-rdf-syntax-ns#"
   xmlns:svg="http://www.w3.org/2000/svg"
   xmlns="http://www.w3.org/2000/svg"
   xmlns:sodipodi="http://sodipodi.sourceforge.net/DTD/sodipodi-0.dtd"
   xmlns:inkscape="http://www.inkscape.org/namespaces/inkscape"
   width="210mm"
   height="297mm"
   viewBox="0 0 210 297"
   version="1.1"
   id="svg8"
   inkscape:version="0.92.3 (2405546, 2018-03-11)"
   sodipodi:docname="images_inkscape.svg.2019_07_09_20_10_06.0.svg">
  <defs
     id="defs2" />
  <sodipodi:namedview
     id="base"
     pagecolor="#ffffff"
     bordercolor="#666666"
     borderopacity="1.0"
     inkscape:pageopacity="0.0"
     inkscape:pageshadow="2"
     inkscape:zoom="0.7546875"
     inkscape:cx="4420.8277"
     inkscape:cy="5088.1024"
     inkscape:document-units="mm"
     inkscape:current-layer="layer1"
     showgrid="false"
     inkscape:window-width="1321"
     inkscape:window-height="713"
     inkscape:window-x="45"
     inkscape:window-y="27"
     inkscape:window-maximized="1"
     showguides="true"
     inkscape:guide-bbox="true"
     inkscape:snap-global="false">
    <sodipodi:guide
       position="211.49137,280.294"
       orientation="1,0"
       id="guide5169"
       inkscape:locked="false" />
    <sodipodi:guide
       position="184.84679,310.88269"
       orientation="1,0"
       id="guide5171"
       inkscape:locked="false" />
    <sodipodi:guide
       position="193.96166,287.35283"
       orientation="1,0"
       id="guide5173"
       inkscape:locked="false" />
    <sodipodi:guide
       position="175.4686,290.8116"
       orientation="1,0"
       id="guide5175"
       inkscape:locked="false" />
  </sodipodi:namedview>
  <metadata
     id="metadata5">
    <rdf:RDF>
      <cc:Work
         rdf:about="">
        <dc:format>image/svg+xml</dc:format>
        <dc:type
           rdf:resource="http://purl.org/dc/dcmitype/StillImage" />
        <dc:title />
      </cc:Work>
    </rdf:RDF>
  </metadata>
  <g
     inkscape:label="Capa 1"
     inkscape:groupmode="layer"
     id="layer1">
    <circle
       style="opacity:1;fill:#ffb380;fill-opacity:1;stroke:none;stroke-width:5.43795681;stroke-linecap:square;stroke-linejoin:miter;stroke-miterlimit:4;stroke-dasharray:none;stroke-dashoffset:0;stroke-opacity:1"
       id="circle4938"
       cx="1178.0038"
       cy="-1032.8788"
       inkscape:export-filename="/home/erick/AndroidStudioProjects/AprendiendoEspanol/app/src/main/res/mipmap-hdpi/parejas.png"
       inkscape:export-xdpi="31.15"
       inkscape:export-ydpi="31.15"
       r="53" />
    <circle
       r="53"
       inkscape:export-ydpi="31.15"
       inkscape:export-xdpi="31.15"
       inkscape:export-filename="/home/erick/AndroidStudioProjects/AprendiendoEspanol/app/src/main/res/mipmap-hdpi/familia.png"
       cy="-1009.0389"
       cx="1048.9879"
       id="circle4911"
       style="opacity:1;fill:#ccffaa;fill-opacity:1;stroke:none;stroke-width:5.43795681;stroke-linecap:square;stroke-linejoin:miter;stroke-miterlimit:4;stroke-dasharray:none;stroke-dashoffset:0;stroke-opacity:1" />
    <circle
       r="53"
       inkscape:export-ydpi="31.15"
       inkscape:export-xdpi="31.15"
       inkscape:export-filename="/home/erick/AndroidStudioProjects/AprendiendoEspanol/app/src/main/res/mipmap-hdpi/alimentos.png"
       cy="-777.72223"
       cx="927.81226"
       id="circle1208"
       style="opacity:1;fill:#87de87;fill-opacity:1;stroke:none;stroke-width:5.43795681;stroke-linecap:square;stroke-linejoin:miter;stroke-miterlimit:4;stroke-dasharray:none;stroke-dashoffset:0;stroke-opacity:1" />
    <path
       style="fill:#aaffcc;stroke:none;stroke-width:0.26458332px;stroke-linecap:butt;stroke-linejoin:miter;stroke-opacity:1"
       d="m 756.26021,-690.51807 h 16.17011 l 6.22255,-4.81735 0.52589,-4.38234 -0.17529,-6.31055 0.87646,-6.31055 2.10352,-4.90824 3.74417,5.48939 v 0 l 6.50124,-3.45053 -0.77957,-5.89529 -2.0125,-5.58819 v 0 l 1.48661,-5.98117 -0.17529,-3.85646 -2.80468,-4.73292 -5.4341,-3.33057 -6.38497,-1.82362 -6.1335,-2.85766 v 0 h -11.29119 l -6.1335,2.85766 -6.51785,1.12244 -4.55763,2.27881 -2.2788,4.55763 -1.22706,5.08352 1.26889,6.68234 -1.61947,3.30936 -0.70117,2.80469 -0.47143,5.36943 6.50126,3.45053 2.20895,-3.03527 1.05175,-4.20703 0.87648,-0.17532 1.75292,7.53764 1.05177,2.97997 c 0,0 -0.17531,2.10352 -0.17531,2.80469 0,0.70117 -0.35057,5.95998 -0.35057,5.95998 l 0.35057,4.20703 z"
       id="path1104"
       inkscape:connector-curvature="0" />
    <circle
       r="53"
       inkscape:export-ydpi="31.15"
       inkscape:export-xdpi="31.15"
       inkscape:export-filename="/home/erick/AndroidStudioProjects/AprendiendoEspanol/app/src/main/res/mipmap-hdpi/cuerpo_humano.png"
       cy="-780.54437"
       cx="652.15753"
       id="circle1073"
       style="opacity:1;fill:#00aad4;fill-opacity:1;stroke:none;stroke-width:5.43795681;stroke-linecap:square;stroke-linejoin:miter;stroke-miterlimit:4;stroke-dasharray:none;stroke-dashoffset:0;stroke-opacity:1" />
    <circle
       style="opacity:1;fill:#eeffaa;fill-opacity:1;stroke:none;stroke-width:5.43795681;stroke-linecap:square;stroke-linejoin:miter;stroke-miterlimit:4;stroke-dasharray:none;stroke-dashoffset:0;stroke-opacity:1"
       id="circle1035"
       cx="545.9248"
       cy="-485.92133"
       inkscape:export-filename="/home/erick/AndroidStudioProjects/AprendiendoEspanol/app/src/main/res/mipmap-hdpi/emergencias.png"
       inkscape:export-xdpi="31.15"
       inkscape:export-ydpi="31.15"
       r="53" />
    <circle
       r="53"
       inkscape:export-ydpi="31.15"
       inkscape:export-xdpi="31.15"
       inkscape:export-filename="/home/erick/AndroidStudioProjects/AprendiendoEspanol/app/src/main/res/mipmap-hdpi/atractivos_turisticos.png"
       cy="-315.53622"
       cx="492.63562"
       id="circle996"
       style="opacity:1;fill:#ffaaaa;fill-opacity:1;stroke:none;stroke-width:5.43795681;stroke-linecap:square;stroke-linejoin:miter;stroke-miterlimit:4;stroke-dasharray:none;stroke-dashoffset:0;stroke-opacity:1" />
    <circle
       r="53"
       style="opacity:1;fill:#aaffaa;fill-opacity:1;stroke:none;stroke-width:5.43795681;stroke-linecap:square;stroke-linejoin:miter;stroke-miterlimit:4;stroke-dasharray:none;stroke-dashoffset:0;stroke-opacity:1"
       id="circle914"
       cx="701.33472"
       cy="-303.84006"
       inkscape:export-filename="/home/erick/AndroidStudioProjects/AprendiendoEspanol/app/src/main/res/mipmap-hdpi/paises.png"
       inkscape:export-xdpi="31.15"
       inkscape:export-ydpi="31.15" />
    <circle
       inkscape:export-ydpi="31.15"
       inkscape:export-xdpi="31.15"
       inkscape:export-filename="/home/erick/AndroidStudioProjects/AprendiendoEspanol/app/src/main/res/mipmap-hdpi/saludos.png"
       cy="-92.786919"
       cx="465.48639"
       id="circle5179"
       style="opacity:1;fill:#ffe680;fill-opacity:1;stroke:none;stroke-width:5.43795681;stroke-linecap:square;stroke-linejoin:miter;stroke-miterlimit:4;stroke-dasharray:none;stroke-dashoffset:0;stroke-opacity:1"
       r="53" />
    <circle
       style="opacity:1;fill:#55ff99;fill-opacity:1;stroke:none;stroke-width:5.42940664;stroke-linecap:square;stroke-linejoin:miter;stroke-miterlimit:4;stroke-dasharray:none;stroke-dashoffset:0;stroke-opacity:1"
       id="path10"
       cx="67.641304"
       cy="126.28623"
       r="52.916668"
       inkscape:export-filename="/home/erick/AndroidStudioProjects/AprendiendoEspanol/app/src/main/res/mipmap-hdpi/saludos.png"
       inkscape:export-xdpi="31.200001"
       inkscape:export-ydpi="31.200001" />
    <path
       style="opacity:1;fill:none;fill-opacity:1;stroke:#0e9052;stroke-width:3.4200654;stroke-linecap:round;stroke-linejoin:round;stroke-miterlimit:4;stroke-dasharray:none;stroke-dashoffset:0;stroke-opacity:1"
       d="m 101.07651,126.03371 c 0,18.40722 -14.921974,33.32919 -33.329179,33.32919 -6.65101,0 -14.847255,-2.63731 -14.847255,-2.63731 -0.616512,-0.45094 -4.989947,4.70297 -12.241405,5.64607 -7.251457,0.94309 -11.785903,-3.01421 -11.785903,-3.01421 0,0 4.737504,-0.69742 8.792016,-4.16448 4.054512,-3.46706 5.418127,-6.73103 4.948297,-7.27006 -5.103871,-5.8556 -8.19494,-13.51142 -8.194939,-21.8892 2e-6,-18.4072 14.921987,-33.329181 33.329189,-33.329181 18.407202,-10e-7 33.329179,14.921981 33.329179,33.329181 z"
       id="circle817"
       inkscape:connector-curvature="0"
       sodipodi:nodetypes="ssszczssss"
       inkscape:export-filename="/home/erick/AndroidStudioProjects/AprendiendoEspanol/app/src/main/res/mipmap-hdpi/saludos.png"
       inkscape:export-xdpi="31.200001"
       inkscape:export-ydpi="31.200001" />
    <text
       xml:space="preserve"
       style="font-style:normal;font-weight:normal;font-size:23.02977753px;line-height:1.25;font-family:sans-serif;letter-spacing:0px;word-spacing:0px;fill:#21af12;fill-opacity:1;stroke:none;stroke-width:0.17272332"
       x="44.486565"
       y="132.36238"
       id="text822"
       inkscape:export-filename="/home/erick/AndroidStudioProjects/AprendiendoEspanol/app/src/main/res/mipmap-hdpi/saludos.png"
       inkscape:export-xdpi="31.200001"
       inkscape:export-ydpi="31.200001"><tspan
         sodipodi:role="line"
         id="tspan820"
         x="44.486565"
         y="132.36238"
         style="font-style:normal;font-variant:normal;font-weight:normal;font-stretch:normal;font-family:Dyuthi;-inkscape-font-specification:Dyuthi;fill:#21af12;fill-opacity:1;stroke-width:0.17272332">Hola!</tspan></text>
    <circle
       inkscape:export-ydpi="17.280001"
       inkscape:export-xdpi="17.280001"
       inkscape:export-filename="/home/erick/AndroidStudioProjects/AprendiendoEspanol/app/src/main/res/mipmap-hdpi/ic_launcher.png"
       r="52.916668"
       cy="172.56366"
       cx="270.98154"
       id="circle830"
       style="opacity:1;fill:#87cdde;fill-opacity:1;stroke:none;stroke-width:5.42940664;stroke-linecap:square;stroke-linejoin:miter;stroke-miterlimit:4;stroke-dasharray:none;stroke-dashoffset:0;stroke-opacity:1" />
    <path
       inkscape:export-ydpi="17.280001"
       inkscape:export-xdpi="17.280001"
       inkscape:export-filename="/home/erick/AndroidStudioProjects/AprendiendoEspanol/app/src/main/res/mipmap-hdpi/ic_launcher.png"
       sodipodi:nodetypes="ssszczssss"
       inkscape:connector-curvature="0"
       id="path832"
       d="m 304.41674,172.31114 c 0,18.40722 -14.92197,33.32919 -33.32917,33.32919 -6.65101,0 -14.84726,-2.63731 -14.84726,-2.63731 -0.61651,-0.45094 -4.98995,4.70297 -12.2414,5.64607 -7.25146,0.94309 -11.78591,-3.01421 -11.78591,-3.01421 0,0 4.73751,-0.69742 8.79202,-4.16448 4.05451,-3.46706 5.41813,-6.73103 4.9483,-7.27006 -5.10388,-5.8556 -8.19494,-13.51142 -8.19494,-21.8892 0,-18.4072 14.92198,-33.32918 33.32919,-33.32918 18.4072,0 33.32917,14.92198 33.32917,33.32918 z"
       style="opacity:1;fill:none;fill-opacity:1;stroke:#012c4d;stroke-width:3.4200654;stroke-linecap:round;stroke-linejoin:round;stroke-miterlimit:4;stroke-dasharray:none;stroke-dashoffset:0;stroke-opacity:1" />
    <text
       inkscape:export-ydpi="17.280001"
       inkscape:export-xdpi="17.280001"
       inkscape:export-filename="/home/erick/AndroidStudioProjects/AprendiendoEspanol/app/src/main/res/mipmap-hdpi/ic_launcher.png"
       id="text836"
       y="180.23111"
       x="242.49182"
       style="font-style:normal;font-weight:normal;font-size:28.17619324px;line-height:1.25;font-family:sans-serif;letter-spacing:0px;word-spacing:0px;fill:#004581;fill-opacity:1;stroke:none;stroke-width:0.21132144"
       xml:space="preserve"><tspan
         style="font-style:normal;font-variant:normal;font-weight:normal;font-stretch:normal;font-family:Dyuthi;-inkscape-font-specification:Dyuthi;fill:#004581;fill-opacity:1;stroke-width:0.21132144"
         y="180.23111"
         x="242.49182"
         id="tspan834"
         sodipodi:role="line">Hola!</tspan></text>
    <path
       style="fill:none;stroke:#93360b;stroke-width:2.5135417;stroke-linecap:round;stroke-linejoin:round;stroke-miterlimit:4;stroke-dasharray:none;stroke-opacity:1"
       d="m 234.63005,7.5368367 c 8.32102,-3.8578121 23.31404,-3.1013642 29.17764,-0.841159 0,0 0.1005,-25.2216567 0.0751,-28.1305757 -0.0254,-2.908919 -1.10062,-5.129964 -4.16817,-5.147434 -3.06755,-0.01747 -5.10152,3.041337 -5.10152,5.185442 V 4.5724739 c 0,0 0.0524,-10.3613509 -0.0107,-19.5521629 -0.0419,-6.104585 0.0107,-10.118751 0.0107,-11.453711 0,-1.33496 -1.8409,-3.831845 -4.54532,-3.742305 -2.6618,0.08813 -4.55325,2.780444 -4.56955,4.618908 -0.0163,1.838463 0,30.437863 0,30.437863 v -26.949391 c 0,-2.514163 -2.51205,-4.308369 -4.90806,-4.308369 -2.39601,0 -4.47013,2.696807 -4.47013,5.411117 V 6.106995 c 0,0 0.0165,-17.221247 0.0165,-19.629349 0,-2.408101 -1.60917,-4.420483 -4.77732,-4.420483 -3.16816,0 -4.54872,2.88601 -4.54872,5.876652 v 39.967958 c 0,0 3.72161,17.732385 24.08101,17.513466 20.35941,-0.218916 21.25134,-17.513466 21.25134,-17.513466 V -2.8776689 c -8.93637,-0.681731 -9.69858,18.4978249 -9.69858,18.4978249 0,0 -5.88916,1.409528 -10.44748,6.332631 -4.55833,4.923103 -5.885,11.318435 -5.885,11.318435"
       id="path5167"
       inkscape:connector-curvature="0"
       sodipodi:nodetypes="cccsczzsczzzczszsczzzcczc" />
    <path
       sodipodi:nodetypes="cccsczzsczzzczszsczzzcczc"
       inkscape:connector-curvature="0"
       id="path5177"
       d="m 452.3941,-84.711188 c 4.71681,-7.86599 17.54548,-15.662662 23.66613,-17.086732 0,0 -14.08538,-20.92234 -15.74051,-23.31462 -1.65513,-2.39228 -3.79236,-3.62573 -6.33995,-1.91696 -2.5476,1.70878 -2.51199,5.38193 -1.30752,7.15575 l 14.58856,21.484462 c 0,0 -5.77724,-8.601392 -10.99248,-16.169502 -3.46398,-5.02678 -5.67546,-8.37725 -6.42539,-9.48166 -0.74993,-1.10442 -3.67555,-2.13594 -5.86262,-0.54263 -2.1526,1.5682 -2.20496,4.85809 -1.18567,6.38821 1.01929,1.53012 17.09879,25.181252 17.09879,25.181252 l -15.1391,-22.295232 c -1.41236,-2.07997 -4.49849,-2.15315 -6.48071,-0.80716 -1.98222,1.34598 -2.18318,4.74221 -0.65839,6.98775 l 15.2083,22.397142 c 0,0 -9.66057,-14.256402 -11.01334,-16.248632 -1.35278,-1.99222 -3.81452,-2.75309 -6.43553,-0.97335 -2.62102,1.77974 -2.14191,4.942882 -0.46189,7.417042 l 22.45242,33.06549 c 0,0 13.04023,12.57935 29.76059,0.96114 16.72036,-11.61822 7.74286,-26.42705 7.74286,-26.42705 l -17.29067,-25.463832 c -7.77603,4.4561 2.36771,20.751522 2.36771,20.751522 0,0 -4.08029,4.4744 -5.08578,11.10797 -1.0055,6.63357 1.48959,12.6697 1.48959,12.6697"
       style="fill:none;stroke:#93360b;stroke-width:2.5135417;stroke-linecap:round;stroke-linejoin:round;stroke-miterlimit:4;stroke-dasharray:none;stroke-opacity:1"
       inkscape:export-filename="/home/erick/AndroidStudioProjects/AprendiendoEspanol/app/src/main/res/mipmap-hdpi/saludos.png"
       inkscape:export-xdpi="31.15"
       inkscape:export-ydpi="31.15" />
    <circle
       r="53"
       style="opacity:1;fill:#aaffcc;fill-opacity:1;stroke:none;stroke-width:5.43795681;stroke-linecap:square;stroke-linejoin:miter;stroke-miterlimit:4;stroke-dasharray:none;stroke-dashoffset:0;stroke-opacity:1"
       id="circle5187"
       cx="588.44586"
       cy="-92.786919"
       inkscape:export-filename="/home/erick/AndroidStudioProjects/AprendiendoEspanol/app/src/main/res/mipmap-hdpi/numeros.png"
       inkscape:export-xdpi="31.15"
       inkscape:export-ydpi="31.15" />
    <text
       xml:space="preserve"
       style="font-style:normal;font-weight:normal;font-size:56.77887726px;line-height:1.25;font-family:sans-serif;letter-spacing:0px;word-spacing:0px;fill:#008000;fill-opacity:1;stroke:none;stroke-width:0.42584163"
       x="551.22101"
       y="-75.54187"
       id="text5193"
       inkscape:export-filename="/home/erick/AndroidStudioProjects/AprendiendoEspanol/app/src/main/res/mipmap-hdpi/numeros.png"
       inkscape:export-xdpi="31"
       inkscape:export-ydpi="31"><tspan
         sodipodi:role="line"
         id="tspan5191"
         x="551.22101"
         y="-75.54187"
         style="font-style:normal;font-variant:normal;font-weight:normal;font-stretch:normal;font-family:Dyuthi;-inkscape-font-specification:Dyuthi;fill:#008000;stroke-width:0.42584163"><tspan
   style="fill:#2a7fff"
   id="tspan5195">1</tspan>2<tspan
   style="fill:#ff0000"
   id="tspan5199">3</tspan></tspan></text>
    <circle
       style="opacity:1;fill:#87cdde;fill-opacity:1;stroke:none;stroke-width:5.43795681;stroke-linecap:square;stroke-linejoin:miter;stroke-miterlimit:4;stroke-dasharray:none;stroke-dashoffset:0;stroke-opacity:1"
       id="circle5201"
       cx="750.66736"
       cy="-86.953758"
       inkscape:export-filename="/home/erick/AndroidStudioProjects/AprendiendoEspanol/app/src/main/res/mipmap-hdpi/hola.png"
       inkscape:export-xdpi="31.15"
       inkscape:export-ydpi="31.15"
       r="53" />
    <text
       xml:space="preserve"
       style="font-style:normal;font-weight:normal;font-size:38.3655777px;line-height:1.25;font-family:sans-serif;letter-spacing:0px;word-spacing:0px;fill:#004581;fill-opacity:1;stroke:none;stroke-width:0.28774181"
       x="711.53156"
       y="-76.052383"
       id="text5205"
       inkscape:export-filename="/home/erick/AndroidStudioProjects/AprendiendoEspanol/app/src/main/res/mipmap-hdpi/hola.png"
       inkscape:export-xdpi="31.15"
       inkscape:export-ydpi="31.15"><tspan
         sodipodi:role="line"
         id="tspan5203"
         x="711.53156"
         y="-76.052383"
         style="font-style:normal;font-variant:normal;font-weight:normal;font-stretch:normal;font-family:Dyuthi;-inkscape-font-specification:Dyuthi;fill:#004581;fill-opacity:1;stroke-width:0.28774181">Hola!</tspan></text>
    <path
       style="opacity:1;fill:#ff0000;stroke:none;stroke-width:1.63553739;stroke-linecap:butt;stroke-linejoin:miter;stroke-miterlimit:4;stroke-dasharray:none;stroke-opacity:1"
       d="m 959.95329,-342.29752 c -0.84801,0.003 -1.65782,0.0291 -2.42363,0.079 -8.70543,0.56775 -13.74138,2.07124 -17.94413,4.8023 58.38434,-6.57029 72.38267,23.51897 72.38267,23.51897 l -101.01037,0.33642 c -4.14793,0.97956 -9.85396,1.66536 -18.13221,2.09755 -29.08144,1.51824 -36.43178,15.26416 -36.68046,21.73304 0,4.9722 1.37382,11.23031 5.8942,14.91485 0.58185,0.47425 1.80277,0.86513 3.57085,1.187 a 20.219732,20.219732 0 0 1 -1.13636,-6.61148 20.219732,20.219732 0 0 1 20.21996,-20.21995 20.219732,20.219732 0 0 1 20.21943,20.21995 20.219732,20.219732 0 0 1 -1.63245,7.94991 c 14.58497,-0.0671 31.51653,-0.35893 48.40996,-0.50798 13.91481,-0.12278 27.38821,-0.0835 39.53661,-0.0155 a 20.219731,20.219731 0 0 1 -1.41854,-7.42642 20.219731,20.219731 0 0 1 20.21948,-20.21995 20.219731,20.219731 0 0 1 20.2199,20.21995 20.219731,20.219731 0 0 1 -1.4877,7.57577 c 4.666,-0.044 7.7376,-0.15742 8.6759,-0.39378 3.8696,-0.9747 4.7984,-5.05472 6.9293,-11.62513 2.131,-6.57042 3.5153,-11.67176 1.4206,-15.8042 -2.0947,-4.13245 -7.8133,-4.79492 -11.5425,-9.05681 -3.9826,-4.55167 -12.7855,-15.62665 -18.4681,-19.71094 -5.4161,-3.89287 -38.57943,-13.10968 -55.82241,-13.04261 z"
       id="path937"
       inkscape:connector-curvature="0" />
    <path
       style="opacity:1;fill:#37c8ab;stroke:none;stroke-width:1.63553739;stroke-linecap:butt;stroke-linejoin:miter;stroke-miterlimit:4;stroke-dasharray:none;stroke-opacity:1"
       d="m 954.56034,-338.35669 c -4.63121,0.0373 -9.62022,0.33793 -14.97481,0.94052 -3.6844,2.39424 -6.72859,5.73172 -11.0422,10.21127 -6.60553,6.85959 -7.16176,11.18246 -17.5855,13.64412 l 101.01037,-0.33642 c 0,0 -11.542,-24.82858 -57.40786,-24.45949 z"
       id="path854"
       inkscape:connector-curvature="0" />
    <circle
       style="opacity:1;fill:#b3b3b3;fill-opacity:1;stroke:none;stroke-width:0.18910597;stroke-linecap:round;stroke-linejoin:round;stroke-miterlimit:4;stroke-dasharray:none;stroke-dashoffset:0;stroke-opacity:1"
       id="path959"
       cx="884.57367"
       cy="-280.29224"
       r="9.0690699" />
    <path
       style="opacity:1;fill:#ffcc00;fill-opacity:1;stroke:none;stroke-width:3.52916598;stroke-linecap:round;stroke-linejoin:round;stroke-miterlimit:4;stroke-dasharray:none;stroke-dashoffset:0;stroke-opacity:1"
       d="m 877.93452,-309.25717 c -16.83157,4.49541 -21.59016,14.34526 -21.78936,19.52698 0,0.44142 0.0154,0.89544 0.0382,1.35443 a 41.420303,41.420303 0 0 0 21.75113,-20.88141 z"
       id="path925"
       inkscape:connector-curvature="0" />
    <path
       style="opacity:1;fill:#ffcc00;fill-opacity:1;stroke:none;stroke-width:2.5135417;stroke-linecap:round;stroke-linejoin:round;stroke-miterlimit:4;stroke-dasharray:none;stroke-dashoffset:0;stroke-opacity:1"
       d="m 1034.0315,-309.7915 a 44.875087,44.875087 0 0 0 10.8768,23.39495 c 1.799,-5.74755 2.7855,-10.32757 0.878,-14.09061 -2.0947,-4.13245 -7.8133,-4.79492 -11.5425,-9.05681 -0.062,-0.0709 -0.148,-0.17351 -0.2123,-0.24753 z"
       id="path930"
       inkscape:connector-curvature="0" />
    <path
       sodipodi:type="star"
       style="opacity:1;fill:#4d4d4d;fill-opacity:1;stroke:none;stroke-width:0.94505602;stroke-linecap:round;stroke-linejoin:round;stroke-miterlimit:4;stroke-dasharray:none;stroke-dashoffset:0;stroke-opacity:1"
       id="path957"
       sodipodi:sides="5"
       sodipodi:cx="693.5141"
       sodipodi:cy="-233.65408"
       sodipodi:r1="6.4523163"
       sodipodi:r2="12.174182"
       sodipodi:arg1="0.78539816"
       sodipodi:arg2="1.4137167"
       inkscape:flatsided="false"
       inkscape:rounded="0.7"
       inkscape:randomized="0"
       d="m 698.07658,-229.09161 c -3.92075,3.92075 2.81848,6.59443 -2.65802,7.46182 -5.4765,0.8674 0.10667,-3.75796 -4.83375,-6.27524 -4.94043,-2.51727 -5.40071,4.71834 -7.91799,-0.22209 -2.51727,-4.94043 3.60701,-1.05982 4.4744,-6.53633 0.86739,-5.4765 -6.15631,-3.67834 -2.23557,-7.59908 3.92075,-3.92074 2.12258,3.10296 7.59908,2.23557 5.47651,-0.86739 1.59591,-6.99167 6.53633,-4.4744 4.94043,2.51727 -2.29518,2.97756 0.2221,7.91799 2.51727,4.94042 7.14263,-0.64276 6.27524,4.83375 -0.8674,5.4765 -3.54108,-1.26273 -7.46182,2.65801 z"
       inkscape:transform-center-x="0.087190918"
       inkscape:transform-center-y="-1.0471805"
       transform="rotate(43.053487,848.07035,-14.645446)" />
    <path
       style="opacity:1;fill:#241c1c;fill-opacity:1;stroke:none;stroke-width:0.34931815;stroke-linecap:round;stroke-linejoin:round;stroke-miterlimit:4;stroke-dasharray:none;stroke-dashoffset:0;stroke-opacity:1"
       d="m 885.77127,-298.20513 c -1.4972,0.0553 -0.47681,1.04427 -2.81329,1.28984 -2.67025,0.28066 -1.25293,-1.29995 -3.80648,-0.47025 -2.55355,0.8297 -0.47818,1.27545 -2.80345,2.61793 -2.32523,1.34248 -1.6737,-0.6778 -3.66903,1.11879 -1.9953,1.7966 0.0817,1.3599 -1.49653,3.53209 -1.57819,2.17218 -1.80441,0.0612 -2.89647,2.51406 -1.09207,2.45283 0.62801,1.20913 0.0698,3.83542 -0.55825,2.62629 -1.62367,0.79027 -1.62367,3.47524 0,2.68497 1.06542,0.84895 1.62367,3.47524 0.55824,2.62629 -1.16184,1.38207 -0.0698,3.83491 1.09206,2.45284 1.31828,0.34239 2.89647,2.51457 1.57819,2.17219 -0.49877,1.73498 1.49653,3.53157 1.99533,1.79659 1.3438,-0.22369 3.66903,1.11879 2.32527,1.34249 0.2499,1.78823 2.80345,2.61793 2.55355,0.8297 1.13623,-0.75039 3.80648,-0.46974 2.67028,0.28066 0.95589,1.53175 3.62614,1.25109 2.67026,-0.28066 0.73255,-1.14796 3.2861,-1.97766 2.55357,-0.8297 1.49625,1.01072 3.82148,-0.33176 2.32524,-1.34248 0.20249,-1.34688 2.19779,-3.14348 1.99533,-1.79659 1.77821,0.31494 3.3564,-1.85725 1.57819,-2.17218 -0.36293,-1.31282 0.72914,-3.76566 1.09209,-2.45284 1.75223,-0.43553 2.31047,-3.06183 0.55822,-2.62629 -0.86558,-1.05175 -0.86558,-3.73672 0,-2.68497 1.4238,-1.11043 0.86558,-3.73672 -0.55824,-2.6263 -1.21838,-0.60899 -2.31047,-3.06183 -1.09207,-2.45284 0.84905,-1.59348 -0.72914,-3.76566 -1.57819,-2.17219 -1.36107,-0.0607 -3.3564,-1.85725 -1.9953,-1.7966 0.12745,-1.801 -2.19779,-3.14348 -2.32523,-1.34248 -1.26791,0.49794 -3.82148,-0.33176 -2.55355,-0.8297 -0.61584,-1.69752 -3.2861,-1.97818 -0.33377,-0.0351 -0.59899,-0.0461 -0.81285,-0.0382 z m -0.43254,6.47144 c 0.1366,-0.005 0.30562,0.002 0.51882,0.0243 1.70558,0.17926 0.46858,0.73353 2.09963,1.26349 1.63105,0.52996 0.95543,-0.64562 2.44067,0.21187 1.48522,0.85749 0.12957,0.86008 1.40404,2.00763 1.2745,1.14755 1.13551,-0.20096 2.14355,1.18649 1.00804,1.38745 -0.23196,0.8383 0.46559,2.40502 0.69754,1.56672 1.11932,0.27845 1.4759,1.95595 0.35655,1.67751 -0.55296,0.67195 -0.55296,2.38694 0,1.71498 0.90951,0.70891 0.55296,2.38642 -0.35658,1.67751 -0.77836,0.38923 -1.4759,1.95595 -0.69755,1.56672 0.54245,1.01757 -0.46559,2.40502 -1.00804,1.38745 -0.86905,0.0389 -2.14355,1.18649 -1.27447,1.14755 0.0812,1.15014 -1.40404,2.00763 -1.48524,0.85749 -0.80962,-0.31808 -2.44067,0.21188 -1.63105,0.52995 -0.39405,1.08422 -2.09963,1.26348 -1.70558,0.17927 -0.61002,-0.62017 -2.31561,-0.79943 -1.70561,-0.17926 -0.80084,0.8302 -2.43189,0.30024 -1.63105,-0.52996 -0.30538,-0.81424 -1.79059,-1.67173 -1.48521,-0.8575 -1.06852,0.43286 -2.34302,-0.71469 -1.27447,-1.14755 0.052,-0.86874 -0.95602,-2.25619 -1.00803,-1.38745 -1.15247,-0.0394 -1.85002,-1.60611 -0.69755,-1.56671 0.40103,-0.77195 0.0444,-2.44946 -0.35655,-1.67751 -1.03714,-0.50452 -1.03714,-2.2195 0,-1.71499 0.68059,-0.54251 1.03714,-2.22002 0.35658,-1.67751 -0.742,-0.88275 -0.0444,-2.44946 0.69755,-1.56672 0.84199,-0.21865 1.85002,-1.60611 1.00806,-1.38745 -0.31845,-1.10812 0.95602,-2.25567 1.2745,-1.14755 0.85781,0.1428 2.34302,-0.71469 1.48521,-0.85749 0.15954,-1.14229 1.79059,-1.67225 1.63105,-0.52996 0.72628,0.47951 2.43189,0.30024 1.49239,-0.15685 0.84048,-0.78839 1.79679,-0.82372 z"
       id="path950"
       inkscape:connector-curvature="0" />
    <path
       id="path955"
       d="m 884.85026,-284.4291 c -0.34576,0.0129 -0.1101,0.24117 -0.6497,0.29788 -0.61669,0.0648 -0.28936,-0.30022 -0.87909,-0.1086 -0.58972,0.19161 -0.11043,0.29456 -0.64744,0.60459 -0.53699,0.31004 -0.38653,-0.15653 -0.84734,0.25838 -0.46079,0.41491 0.0189,0.31407 -0.34561,0.81572 -0.36448,0.50165 -0.41671,0.0142 -0.66893,0.5806 -0.25219,0.56647 0.14504,0.27924 0.0161,0.88577 -0.12892,0.60653 -0.37497,0.18252 -0.37497,0.80258 0,0.62008 0.24605,0.19607 0.37497,0.80259 0.12893,0.60653 -0.26832,0.31918 -0.0161,0.88565 0.25222,0.56647 0.30445,0.0791 0.66893,0.58073 0.36447,0.50165 -0.11518,0.40067 0.34561,0.81558 0.46081,0.41492 0.31035,-0.0516 0.84734,0.25838 0.53701,0.31004 0.0577,0.41299 0.64744,0.60459 0.58973,0.19162 0.2624,-0.17329 0.87909,-0.10847 0.61668,0.0648 0.22076,0.35373 0.83743,0.28893 0.61668,-0.0648 0.16918,-0.26512 0.75891,-0.45673 0.58972,-0.19161 0.34554,0.23341 0.88254,-0.0766 0.537,-0.31004 0.0468,-0.31106 0.50756,-0.72597 0.46081,-0.4149 0.41068,0.0727 0.77514,-0.42892 0.36448,-0.50165 -0.0838,-0.30319 0.16839,-0.86965 0.25222,-0.56647 0.40467,-0.10059 0.53359,-0.70711 0.12892,-0.60653 -0.19989,-0.2429 -0.19989,-0.86298 0,-0.62006 0.32881,-0.25644 0.19989,-0.86297 -0.12892,-0.60652 -0.28137,-0.14065 -0.53359,-0.70711 -0.25221,-0.56646 0.19609,-0.368 -0.16839,-0.86965 -0.36446,-0.50166 -0.31433,-0.014 -0.77514,-0.42892 -0.4608,-0.41492 0.0294,-0.41594 -0.50756,-0.72597 -0.537,-0.31003 -0.29282,0.11499 -0.88254,-0.0766 -0.58973,-0.19161 -0.14223,-0.39203 -0.75891,-0.45685 -0.0771,-0.008 -0.13833,-0.0106 -0.18773,-0.009 z m -0.0999,1.49454 c 0.0316,-9.4e-4 0.0706,4.4e-4 0.11982,0.006 0.39389,0.0415 0.10822,0.16941 0.4849,0.29179 0.37668,0.12239 0.22065,-0.1491 0.56366,0.0489 0.343,0.19803 0.0299,0.19864 0.32425,0.46365 0.29434,0.26502 0.26224,-0.0464 0.49504,0.27401 0.2328,0.32043 -0.0536,0.19361 0.10753,0.55543 0.16109,0.36183 0.2585,0.0643 0.34085,0.45172 0.0823,0.38741 -0.12771,0.15518 -0.12771,0.55125 0,0.39606 0.21004,0.16371 0.12771,0.55112 -0.0824,0.38741 -0.17976,0.0899 -0.34085,0.45172 -0.1611,0.36182 0.12527,0.235 -0.10753,0.55542 -0.2328,0.32042 -0.2007,0.009 -0.49504,0.27401 -0.29433,0.26502 0.0188,0.26562 -0.32425,0.46366 -0.34301,0.19802 -0.18698,-0.0735 -0.56366,0.0489 -0.37668,0.12238 -0.091,0.25039 -0.4849,0.29179 -0.3939,0.0414 -0.14088,-0.14322 -0.53477,-0.18462 -0.3939,-0.0414 -0.18495,0.19172 -0.56164,0.0693 -0.37667,-0.12239 -0.0705,-0.18805 -0.41351,-0.38607 -0.34301,-0.19804 -0.24678,0.1 -0.54112,-0.16506 -0.29432,-0.26502 0.012,-0.20063 -0.22078,-0.52106 -0.2328,-0.32041 -0.26616,-0.009 -0.42725,-0.37091 -0.1611,-0.36183 0.0926,-0.17828 0.0102,-0.5657 -0.0823,-0.3874 -0.23952,-0.11651 -0.23952,-0.51257 0,-0.39607 0.15718,-0.12529 0.23952,-0.5127 0.0823,-0.38741 -0.17136,-0.20387 -0.0102,-0.56569 0.16109,-0.36182 0.19445,-0.0505 0.42725,-0.37092 0.2328,-0.32043 -0.0735,-0.25591 0.22078,-0.52093 0.29434,-0.26502 0.19811,0.0329 0.54112,-0.16506 0.34299,-0.19803 0.0369,-0.2638 0.41351,-0.38619 0.37669,-0.12239 0.16774,0.11073 0.56164,0.0693 0.34465,-0.0363 0.1941,-0.18208 0.41495,-0.19024 z"
       style="opacity:1;fill:#ffffff;fill-opacity:1;stroke:none;stroke-width:0.08067282;stroke-linecap:round;stroke-linejoin:round;stroke-miterlimit:4;stroke-dasharray:none;stroke-dashoffset:0;stroke-opacity:1"
       inkscape:connector-curvature="0" />
    <g
       id="g973"
       transform="translate(315.90972,-46.978606)">
      <circle
         style="opacity:1;fill:#b3b3b3;fill-opacity:1;stroke:none;stroke-width:0.18910597;stroke-linecap:round;stroke-linejoin:round;stroke-miterlimit:4;stroke-dasharray:none;stroke-dashoffset:0;stroke-opacity:1"
         id="circle961"
         cx="693.85455"
         cy="-233.31363"
         r="9.0690699" />
      <path
         sodipodi:type="star"
         style="opacity:1;fill:#4d4d4d;fill-opacity:1;stroke:none;stroke-width:0.94505602;stroke-linecap:round;stroke-linejoin:round;stroke-miterlimit:4;stroke-dasharray:none;stroke-dashoffset:0;stroke-opacity:1"
         id="path963"
         sodipodi:sides="5"
         sodipodi:cx="693.5141"
         sodipodi:cy="-233.65408"
         sodipodi:r1="6.4523163"
         sodipodi:r2="12.174182"
         sodipodi:arg1="0.78539816"
         sodipodi:arg2="1.4137167"
         inkscape:flatsided="false"
         inkscape:rounded="0.7"
         inkscape:randomized="0"
         d="m 698.07658,-229.09161 c -3.92075,3.92075 2.81848,6.59443 -2.65802,7.46182 -5.4765,0.8674 0.10667,-3.75796 -4.83375,-6.27524 -4.94043,-2.51727 -5.40071,4.71834 -7.91799,-0.22209 -2.51727,-4.94043 3.60701,-1.05982 4.4744,-6.53633 0.86739,-5.4765 -6.15631,-3.67834 -2.23557,-7.59908 3.92075,-3.92074 2.12258,3.10296 7.59908,2.23557 5.47651,-0.86739 1.59591,-6.99167 6.53633,-4.4744 4.94043,2.51727 -2.29518,2.97756 0.2221,7.91799 2.51727,4.94042 7.14263,-0.64276 6.27524,4.83375 -0.8674,5.4765 -3.54108,-1.26273 -7.46182,2.65801 z"
         inkscape:transform-center-x="0.087190918"
         inkscape:transform-center-y="-1.0471805"
         transform="rotate(43.053487,693.16125,-232.90951)" />
      <path
         style="opacity:1;fill:#241c1c;fill-opacity:1;stroke:none;stroke-width:1.32025754;stroke-linecap:round;stroke-linejoin:round;stroke-miterlimit:4;stroke-dasharray:none;stroke-dashoffset:0;stroke-opacity:1"
         d="m 2626.9688,-949.51758 c -5.6587,0.20905 -1.8021,3.94685 -10.6329,4.875 -10.0923,1.06075 -4.7355,-4.91322 -14.3867,-1.77734 -9.6512,3.13587 -1.8073,4.82058 -10.5957,9.89453 -8.7883,5.07395 -6.3258,-2.56176 -13.8672,4.22851 -7.5413,6.79028 0.3086,5.13979 -5.6562,13.34961 -5.9648,8.20983 -6.8198,0.23138 -10.9473,9.50196 -4.1275,9.27057 2.3736,4.56994 0.2637,14.49609 -2.1099,9.92615 -6.1367,2.98686 -6.1367,13.13477 0,10.1479 4.0268,3.20861 6.1367,13.13476 2.1099,9.92615 -4.3912,5.22357 -0.2637,14.49414 4.1275,9.27058 4.9825,1.29408 10.9473,9.50391 5.9648,8.20983 -1.8851,6.55738 5.6562,13.34766 7.5414,6.79027 5.0789,-0.84544 13.8672,4.22851 8.7884,5.07395 0.9445,6.75866 10.5957,9.89453 9.6512,3.13588 4.2944,-2.83613 14.3867,-1.77539 10.0924,1.06075 3.6128,5.78926 13.7051,4.72852 10.0923,-1.06075 2.7687,-4.33874 12.4199,-7.47461 9.6513,-3.13588 5.6551,3.82004 14.4434,-1.25391 8.7883,-5.07395 0.7653,-5.09058 8.3066,-11.88086 7.5414,-6.79027 6.7208,1.1903 12.6856,-7.01953 5.9648,-8.20983 -1.3717,-4.96185 2.7558,-14.23242 4.1276,-9.27057 6.6226,-1.64612 8.7325,-11.57227 2.1098,-9.92615 -3.2715,-3.97514 -3.2715,-14.12304 0,-10.14791 5.3813,-4.1969 3.2715,-14.12305 -2.1099,-9.92615 -4.6049,-2.30169 -8.7325,-11.57227 -4.1275,-9.27057 3.209,-6.02259 -2.7558,-14.23242 -5.9648,-8.20983 -5.1442,-0.22925 -12.6856,-7.01953 -7.5413,-6.79027 0.4817,-6.80691 -8.3066,-11.88086 -8.7883,-5.07395 -4.7921,1.88197 -14.4434,-1.2539 -9.6512,-3.13588 -2.3276,-6.41582 -12.4199,-7.47657 -1.2615,-0.13259 -2.2639,-0.17439 -3.0722,-0.14453 z m -1.6348,24.45899 c 0.5163,-0.0191 1.1551,0.007 1.9609,0.0918 6.4463,0.67754 1.771,2.7724 7.9356,4.77539 6.1646,2.003 3.6111,-2.44013 9.2246,0.80079 5.6134,3.24091 0.4897,3.25069 5.3066,7.58789 4.817,4.33719 4.2917,-0.75954 8.1016,4.48437 3.8099,5.24391 -0.8767,3.16839 1.7597,9.08984 2.6364,5.92145 4.2305,1.05239 5.5782,7.39258 1.3476,6.34019 -2.0899,2.53965 -2.0899,9.02149 0,6.48183 3.4375,2.67934 2.0899,9.01953 -1.3477,6.34019 -2.9418,1.47113 -5.5782,7.39258 -2.6364,5.92145 2.0502,3.84593 -1.7597,9.08984 -3.8099,5.24391 -3.2846,0.14718 -8.1016,4.48438 -4.8169,4.33719 0.3068,4.34697 -5.3066,7.58789 -5.6135,3.24091 -3.06,-1.20222 -9.2246,0.80078 -6.1646,2.00299 -1.4893,4.09785 -7.9356,4.77539 -6.4463,0.67753 -2.3056,-2.34395 -8.7519,-3.02149 -6.4464,-0.67753 -3.0268,3.13777 -9.1914,1.13477 -6.1646,-2.003 -1.1542,-3.07744 -6.7676,-6.31836 -5.6134,-3.24092 -4.0385,1.63602 -8.8555,-2.70117 -4.8169,-4.3372 0.1967,-3.28343 -3.6133,-8.52735 -3.8099,-5.24391 -4.3558,-0.14886 -6.9922,-6.07031 -2.6364,-5.92145 1.5157,-2.91762 0.168,-9.25781 -1.3476,-6.34019 -3.9199,-1.90684 -3.9199,-8.38867 0,-6.48184 2.5723,-2.05044 3.9199,-8.39063 1.3477,-6.34019 -2.8044,-3.33636 -0.168,-9.25781 2.6364,-5.92145 3.1823,-0.8264 6.9922,-6.07031 3.81,-5.24392 -1.2036,-4.1882 3.6133,-8.52539 4.817,-4.3372 3.2421,0.53974 8.8555,-2.70118 5.6134,-3.24091 0.603,-4.31731 6.7676,-6.32031 6.1646,-2.00299 2.745,1.8123 9.1914,1.13477 5.6405,-0.59285 3.1766,-2.97976 6.791,-3.11328 z"
         transform="scale(0.26458333)"
         id="path965"
         inkscape:connector-curvature="0" />
      <path
         id="path967"
         d="m 694.13114,-237.45049 c -0.34576,0.0129 -0.1101,0.24117 -0.6497,0.29788 -0.61669,0.0648 -0.28936,-0.30022 -0.87909,-0.1086 -0.58972,0.19161 -0.11043,0.29456 -0.64744,0.60459 -0.53699,0.31004 -0.38653,-0.15653 -0.84734,0.25838 -0.46079,0.41491 0.0189,0.31407 -0.34561,0.81572 -0.36448,0.50165 -0.41671,0.0142 -0.66893,0.5806 -0.25219,0.56647 0.14504,0.27924 0.0161,0.88577 -0.12892,0.60653 -0.37497,0.18252 -0.37497,0.80258 0,0.62008 0.24605,0.19607 0.37497,0.80259 0.12893,0.60653 -0.26832,0.31918 -0.0161,0.88565 0.25222,0.56647 0.30445,0.0791 0.66893,0.58073 0.36447,0.50165 -0.11518,0.40067 0.34561,0.81558 0.46081,0.41492 0.31035,-0.0516 0.84734,0.25838 0.53701,0.31004 0.0577,0.41299 0.64744,0.60459 0.58973,0.19162 0.2624,-0.17329 0.87909,-0.10847 0.61668,0.0648 0.22076,0.35373 0.83743,0.28893 0.61668,-0.0648 0.16918,-0.26512 0.75891,-0.45673 0.58972,-0.19161 0.34554,0.23341 0.88254,-0.0766 0.537,-0.31004 0.0468,-0.31106 0.50756,-0.72597 0.46081,-0.4149 0.41068,0.0727 0.77514,-0.42892 0.36448,-0.50165 -0.0838,-0.30319 0.16839,-0.86965 0.25222,-0.56647 0.40467,-0.10059 0.53359,-0.70711 0.12892,-0.60653 -0.19989,-0.2429 -0.19989,-0.86298 0,-0.62006 0.32881,-0.25644 0.19989,-0.86297 -0.12892,-0.60652 -0.28137,-0.14065 -0.53359,-0.70711 -0.25221,-0.56646 0.19609,-0.368 -0.16839,-0.86965 -0.36446,-0.50166 -0.31433,-0.014 -0.77514,-0.42892 -0.4608,-0.41492 0.0294,-0.41594 -0.50756,-0.72597 -0.537,-0.31003 -0.29282,0.11499 -0.88254,-0.0766 -0.58973,-0.19161 -0.14223,-0.39203 -0.75891,-0.45685 -0.0771,-0.008 -0.13833,-0.0106 -0.18773,-0.009 z m -0.0999,1.49454 c 0.0316,-9.4e-4 0.0706,4.4e-4 0.11982,0.006 0.39389,0.0415 0.10822,0.16941 0.4849,0.29179 0.37668,0.12239 0.22065,-0.1491 0.56366,0.0489 0.343,0.19803 0.0299,0.19864 0.32425,0.46365 0.29434,0.26502 0.26224,-0.0464 0.49504,0.27401 0.2328,0.32043 -0.0536,0.19361 0.10753,0.55543 0.16109,0.36183 0.2585,0.0643 0.34085,0.45172 0.0823,0.38741 -0.12771,0.15518 -0.12771,0.55125 0,0.39606 0.21004,0.16371 0.12771,0.55112 -0.0824,0.38741 -0.17976,0.0899 -0.34085,0.45172 -0.1611,0.36182 0.12527,0.235 -0.10753,0.55542 -0.2328,0.32042 -0.2007,0.009 -0.49504,0.27401 -0.29433,0.26502 0.0188,0.26562 -0.32425,0.46366 -0.34301,0.19802 -0.18698,-0.0735 -0.56366,0.0489 -0.37668,0.12238 -0.091,0.25039 -0.4849,0.29179 -0.3939,0.0414 -0.14088,-0.14322 -0.53477,-0.18462 -0.3939,-0.0414 -0.18495,0.19172 -0.56164,0.0693 -0.37667,-0.12239 -0.0705,-0.18805 -0.41351,-0.38607 -0.34301,-0.19804 -0.24678,0.1 -0.54112,-0.16506 -0.29432,-0.26502 0.012,-0.20063 -0.22078,-0.52106 -0.2328,-0.32041 -0.26616,-0.009 -0.42725,-0.37091 -0.1611,-0.36183 0.0926,-0.17828 0.0102,-0.5657 -0.0823,-0.3874 -0.23952,-0.11651 -0.23952,-0.51257 0,-0.39607 0.15718,-0.12529 0.23952,-0.5127 0.0823,-0.38741 -0.17136,-0.20387 -0.0102,-0.56569 0.16109,-0.36182 0.19445,-0.0505 0.42725,-0.37092 0.2328,-0.32043 -0.0735,-0.25591 0.22078,-0.52093 0.29434,-0.26502 0.19811,0.0329 0.54112,-0.16506 0.34299,-0.19803 0.0369,-0.2638 0.41351,-0.38619 0.37669,-0.12239 0.16774,0.11073 0.56164,0.0693 0.34465,-0.0363 0.1941,-0.18208 0.41495,-0.19024 z"
         style="opacity:1;fill:#ffffff;fill-opacity:1;stroke:none;stroke-width:0.08067282;stroke-linecap:round;stroke-linejoin:round;stroke-miterlimit:4;stroke-dasharray:none;stroke-dashoffset:0;stroke-opacity:1"
         inkscape:connector-curvature="0" />
    </g>
    <path
       style="fill:#ff0000;stroke:none;stroke-width:0.26458332px;stroke-linecap:butt;stroke-linejoin:miter;stroke-opacity:1"
       d="m 995.40955,-334.28404 -34.21049,32.7231 4.71014,-0.74371 35.2021,-29.00455 z"
       id="path975"
       inkscape:connector-curvature="0"
       sodipodi:nodetypes="ccccc" />
    <circle
       r="53"
       inkscape:export-ydpi="31.15"
       inkscape:export-xdpi="31.15"
       inkscape:export-filename="/home/erick/AndroidStudioProjects/AprendiendoEspanol/app/src/main/res/mipmap-hdpi/transporte.png"
       cy="-88.356117"
       cx="886.34436"
       id="circle977"
       style="opacity:1;fill:#e5ff80;fill-opacity:1;stroke:none;stroke-width:5.43795681;stroke-linecap:square;stroke-linejoin:miter;stroke-miterlimit:4;stroke-dasharray:none;stroke-dashoffset:0;stroke-opacity:1" />
    <g
       id="g1021"
       transform="matrix(0.4586728,0,0,0.4586728,546.0853,37.131859)">
      <path
         style="opacity:1;fill:#ff0000;stroke:none;stroke-width:1.63553739;stroke-linecap:butt;stroke-linejoin:miter;stroke-miterlimit:4;stroke-dasharray:none;stroke-opacity:1"
         d="m 750.3025,-313.54942 c -0.84801,0.003 -1.65782,0.0291 -2.42363,0.079 -8.70543,0.56775 -13.74138,2.07124 -17.94413,4.8023 58.38434,-6.57029 72.38267,23.51897 72.38267,23.51897 l -101.01037,0.33642 c -4.14793,0.97956 -9.85396,1.66536 -18.13221,2.09755 -29.08144,1.51824 -36.43178,15.26416 -36.68046,21.73304 0,4.9722 1.37382,11.23031 5.8942,14.91485 0.58185,0.47425 1.80277,0.86513 3.57085,1.187 a 20.219732,20.219732 0 0 1 -1.13636,-6.61148 20.219732,20.219732 0 0 1 20.21996,-20.21995 20.219732,20.219732 0 0 1 20.21943,20.21995 20.219732,20.219732 0 0 1 -1.63245,7.94991 c 14.58497,-0.0671 31.51653,-0.35893 48.40996,-0.50798 13.91481,-0.12278 27.38821,-0.0835 39.53661,-0.0155 a 20.219731,20.219731 0 0 1 -1.41854,-7.42642 20.219731,20.219731 0 0 1 20.21948,-20.21995 20.219731,20.219731 0 0 1 20.2199,20.21995 20.219731,20.219731 0 0 1 -1.4877,7.57577 c 4.666,-0.044 7.7376,-0.15742 8.6759,-0.39378 3.8696,-0.9747 4.7984,-5.05472 6.9293,-11.62513 2.131,-6.57042 3.5153,-11.67176 1.4206,-15.8042 -2.0947,-4.13245 -7.8133,-4.79492 -11.5425,-9.05681 -3.9826,-4.55167 -12.7855,-15.62665 -18.4681,-19.71094 -5.4161,-3.89287 -38.57943,-13.10968 -55.82241,-13.04261 z"
         id="path979"
         inkscape:connector-curvature="0" />
      <path
         style="opacity:1;fill:#37c8ab;stroke:none;stroke-width:1.63553739;stroke-linecap:butt;stroke-linejoin:miter;stroke-miterlimit:4;stroke-dasharray:none;stroke-opacity:1"
         d="m 744.90955,-309.60859 c -4.63121,0.0373 -9.62022,0.33793 -14.97481,0.94052 -3.6844,2.39424 -6.72859,5.73172 -11.0422,10.21127 -6.60553,6.85959 -7.16176,11.18246 -17.5855,13.64412 l 101.01037,-0.33642 c 0,0 -11.542,-24.82858 -57.40786,-24.45949 z"
         id="path981"
         inkscape:connector-curvature="0" />
      <circle
         style="opacity:1;fill:#b3b3b3;fill-opacity:1;stroke:none;stroke-width:0.18910597;stroke-linecap:round;stroke-linejoin:round;stroke-miterlimit:4;stroke-dasharray:none;stroke-dashoffset:0;stroke-opacity:1"
         id="circle983"
         cx="674.92285"
         cy="-251.54413"
         r="9.0690699" />
      <path
         style="opacity:1;fill:#ffcc00;fill-opacity:1;stroke:none;stroke-width:3.52916598;stroke-linecap:round;stroke-linejoin:round;stroke-miterlimit:4;stroke-dasharray:none;stroke-dashoffset:0;stroke-opacity:1"
         d="m 668.28373,-280.50907 c -16.83157,4.49541 -21.59016,14.34526 -21.78936,19.52698 0,0.44142 0.0154,0.89544 0.0382,1.35443 a 41.420303,41.420303 0 0 0 21.75113,-20.88141 z"
         id="path985"
         inkscape:connector-curvature="0" />
      <path
         style="opacity:1;fill:#ffcc00;fill-opacity:1;stroke:none;stroke-width:2.5135417;stroke-linecap:round;stroke-linejoin:round;stroke-miterlimit:4;stroke-dasharray:none;stroke-dashoffset:0;stroke-opacity:1"
         d="m 824.38071,-281.0434 a 44.875087,44.875087 0 0 0 10.8768,23.39495 c 1.799,-5.74755 2.7855,-10.32757 0.878,-14.09061 -2.0947,-4.13245 -7.8133,-4.79492 -11.5425,-9.05681 -0.062,-0.0709 -0.148,-0.17351 -0.2123,-0.24753 z"
         id="path987"
         inkscape:connector-curvature="0" />
      <path
         sodipodi:type="star"
         style="opacity:1;fill:#4d4d4d;fill-opacity:1;stroke:none;stroke-width:0.94505602;stroke-linecap:round;stroke-linejoin:round;stroke-miterlimit:4;stroke-dasharray:none;stroke-dashoffset:0;stroke-opacity:1"
         id="path989"
         sodipodi:sides="5"
         sodipodi:cx="693.5141"
         sodipodi:cy="-233.65408"
         sodipodi:r1="6.4523163"
         sodipodi:r2="12.174182"
         sodipodi:arg1="0.78539816"
         sodipodi:arg2="1.4137167"
         inkscape:flatsided="false"
         inkscape:rounded="0.7"
         inkscape:randomized="0"
         d="m 698.07658,-229.09161 c -3.92075,3.92075 2.81848,6.59443 -2.65802,7.46182 -5.4765,0.8674 0.10667,-3.75796 -4.83375,-6.27524 -4.94043,-2.51727 -5.40071,4.71834 -7.91799,-0.22209 -2.51727,-4.94043 3.60701,-1.05982 4.4744,-6.53633 0.86739,-5.4765 -6.15631,-3.67834 -2.23557,-7.59908 3.92075,-3.92074 2.12258,3.10296 7.59908,2.23557 5.47651,-0.86739 1.59591,-6.99167 6.53633,-4.4744 4.94043,2.51727 -2.29518,2.97756 0.2221,7.91799 2.51727,4.94042 7.14263,-0.64276 6.27524,4.83375 -0.8674,5.4765 -3.54108,-1.26273 -7.46182,2.65801 z"
         inkscape:transform-center-x="0.087190918"
         inkscape:transform-center-y="-1.0471805"
         transform="rotate(43.053487,706.80419,-266.02234)" />
      <path
         style="opacity:1;fill:#241c1c;fill-opacity:1;stroke:none;stroke-width:0.34931815;stroke-linecap:round;stroke-linejoin:round;stroke-miterlimit:4;stroke-dasharray:none;stroke-dashoffset:0;stroke-opacity:1"
         d="m 676.12048,-269.45703 c -1.4972,0.0553 -0.47681,1.04427 -2.81329,1.28984 -2.67025,0.28066 -1.25293,-1.29995 -3.80648,-0.47025 -2.55355,0.8297 -0.47818,1.27545 -2.80345,2.61793 -2.32523,1.34248 -1.6737,-0.6778 -3.66903,1.11879 -1.9953,1.7966 0.0817,1.3599 -1.49653,3.53209 -1.57819,2.17218 -1.80441,0.0612 -2.89647,2.51406 -1.09207,2.45283 0.62801,1.20913 0.0698,3.83542 -0.55825,2.62629 -1.62367,0.79027 -1.62367,3.47524 0,2.68497 1.06542,0.84895 1.62367,3.47524 0.55824,2.62629 -1.16184,1.38207 -0.0698,3.83491 1.09206,2.45284 1.31828,0.34239 2.89647,2.51457 1.57819,2.17219 -0.49877,1.73498 1.49653,3.53157 1.99533,1.79659 1.3438,-0.22369 3.66903,1.11879 2.32527,1.34249 0.2499,1.78823 2.80345,2.61793 2.55355,0.8297 1.13623,-0.75039 3.80648,-0.46974 2.67028,0.28066 0.95589,1.53175 3.62614,1.25109 2.67026,-0.28066 0.73255,-1.14796 3.2861,-1.97766 2.55357,-0.8297 1.49625,1.01072 3.82148,-0.33176 2.32524,-1.34248 0.20249,-1.34688 2.19779,-3.14348 1.99533,-1.79659 1.77821,0.31494 3.3564,-1.85725 1.57819,-2.17218 -0.36293,-1.31282 0.72914,-3.76566 1.09209,-2.45284 1.75223,-0.43553 2.31047,-3.06183 0.55822,-2.62629 -0.86558,-1.05175 -0.86558,-3.73672 0,-2.68497 1.4238,-1.11043 0.86558,-3.73672 -0.55824,-2.6263 -1.21838,-0.60899 -2.31047,-3.06183 -1.09207,-2.45284 0.84905,-1.59348 -0.72914,-3.76566 -1.57819,-2.17219 -1.36107,-0.0607 -3.3564,-1.85725 -1.9953,-1.7966 0.12745,-1.801 -2.19779,-3.14348 -2.32523,-1.34248 -1.26791,0.49794 -3.82148,-0.33176 -2.55355,-0.8297 -0.61584,-1.69752 -3.2861,-1.97818 -0.33377,-0.0351 -0.59899,-0.0461 -0.81285,-0.0382 z m -0.43254,6.47144 c 0.1366,-0.005 0.30562,0.002 0.51882,0.0243 1.70558,0.17926 0.46858,0.73353 2.09963,1.26349 1.63105,0.52996 0.95543,-0.64562 2.44067,0.21187 1.48522,0.85749 0.12957,0.86008 1.40404,2.00763 1.2745,1.14755 1.13551,-0.20096 2.14355,1.18649 1.00804,1.38745 -0.23196,0.8383 0.46559,2.40502 0.69754,1.56672 1.11932,0.27845 1.4759,1.95595 0.35655,1.67751 -0.55296,0.67195 -0.55296,2.38694 0,1.71498 0.90951,0.70891 0.55296,2.38642 -0.35658,1.67751 -0.77836,0.38923 -1.4759,1.95595 -0.69755,1.56672 0.54245,1.01757 -0.46559,2.40502 -1.00804,1.38745 -0.86905,0.0389 -2.14355,1.18649 -1.27447,1.14755 0.0812,1.15014 -1.40404,2.00763 -1.48524,0.85749 -0.80962,-0.31808 -2.44067,0.21188 -1.63105,0.52995 -0.39405,1.08422 -2.09963,1.26348 -1.70558,0.17927 -0.61002,-0.62017 -2.31561,-0.79943 -1.70561,-0.17926 -0.80084,0.8302 -2.43189,0.30024 -1.63105,-0.52996 -0.30538,-0.81424 -1.79059,-1.67173 -1.48521,-0.8575 -1.06852,0.43286 -2.34302,-0.71469 -1.27447,-1.14755 0.052,-0.86874 -0.95602,-2.25619 -1.00803,-1.38745 -1.15247,-0.0394 -1.85002,-1.60611 -0.69755,-1.56671 0.40103,-0.77195 0.0444,-2.44946 -0.35655,-1.67751 -1.03714,-0.50452 -1.03714,-2.2195 0,-1.71499 0.68059,-0.54251 1.03714,-2.22002 0.35658,-1.67751 -0.742,-0.88275 -0.0444,-2.44946 0.69755,-1.56672 0.84199,-0.21865 1.85002,-1.60611 1.00806,-1.38745 -0.31845,-1.10812 0.95602,-2.25567 1.2745,-1.14755 0.85781,0.1428 2.34302,-0.71469 1.48521,-0.85749 0.15954,-1.14229 1.79059,-1.67225 1.63105,-0.52996 0.72628,0.47951 2.43189,0.30024 1.49239,-0.15685 0.84048,-0.78839 1.79679,-0.82372 z"
         id="path991"
         inkscape:connector-curvature="0" />
      <path
         id="path993"
         d="m 675.19947,-255.681 c -0.34576,0.0129 -0.1101,0.24117 -0.6497,0.29788 -0.61669,0.0648 -0.28936,-0.30022 -0.87909,-0.1086 -0.58972,0.19161 -0.11043,0.29456 -0.64744,0.60459 -0.53699,0.31004 -0.38653,-0.15653 -0.84734,0.25838 -0.46079,0.41491 0.0189,0.31407 -0.34561,0.81572 -0.36448,0.50165 -0.41671,0.0142 -0.66893,0.5806 -0.25219,0.56647 0.14504,0.27924 0.0161,0.88577 -0.12892,0.60653 -0.37497,0.18252 -0.37497,0.80258 0,0.62008 0.24605,0.19607 0.37497,0.80259 0.12893,0.60653 -0.26832,0.31918 -0.0161,0.88565 0.25222,0.56647 0.30445,0.0791 0.66893,0.58073 0.36447,0.50165 -0.11518,0.40067 0.34561,0.81558 0.46081,0.41492 0.31035,-0.0516 0.84734,0.25838 0.53701,0.31004 0.0577,0.41299 0.64744,0.60459 0.58973,0.19162 0.2624,-0.17329 0.87909,-0.10847 0.61668,0.0648 0.22076,0.35373 0.83743,0.28893 0.61668,-0.0648 0.16918,-0.26512 0.75891,-0.45673 0.58972,-0.19161 0.34554,0.23341 0.88254,-0.0766 0.537,-0.31004 0.0468,-0.31106 0.50756,-0.72597 0.46081,-0.4149 0.41068,0.0727 0.77514,-0.42892 0.36448,-0.50165 -0.0838,-0.30319 0.16839,-0.86965 0.25222,-0.56647 0.40467,-0.10059 0.53359,-0.70711 0.12892,-0.60653 -0.19989,-0.2429 -0.19989,-0.86298 0,-0.62006 0.32881,-0.25644 0.19989,-0.86297 -0.12892,-0.60652 -0.28137,-0.14065 -0.53359,-0.70711 -0.25221,-0.56646 0.19609,-0.368 -0.16839,-0.86965 -0.36446,-0.50166 -0.31433,-0.014 -0.77514,-0.42892 -0.4608,-0.41492 0.0294,-0.41594 -0.50756,-0.72597 -0.537,-0.31003 -0.29282,0.11499 -0.88254,-0.0766 -0.58973,-0.19161 -0.14223,-0.39203 -0.75891,-0.45685 -0.0771,-0.008 -0.13833,-0.0106 -0.18773,-0.009 z m -0.0999,1.49454 c 0.0316,-9.4e-4 0.0706,4.4e-4 0.11982,0.006 0.39389,0.0415 0.10822,0.16941 0.4849,0.29179 0.37668,0.12239 0.22065,-0.1491 0.56366,0.0489 0.343,0.19803 0.0299,0.19864 0.32425,0.46365 0.29434,0.26502 0.26224,-0.0464 0.49504,0.27401 0.2328,0.32043 -0.0536,0.19361 0.10753,0.55543 0.16109,0.36183 0.2585,0.0643 0.34085,0.45172 0.0823,0.38741 -0.12771,0.15518 -0.12771,0.55125 0,0.39606 0.21004,0.16371 0.12771,0.55112 -0.0824,0.38741 -0.17976,0.0899 -0.34085,0.45172 -0.1611,0.36182 0.12527,0.235 -0.10753,0.55542 -0.2328,0.32042 -0.2007,0.009 -0.49504,0.27401 -0.29433,0.26502 0.0188,0.26562 -0.32425,0.46366 -0.34301,0.19802 -0.18698,-0.0735 -0.56366,0.0489 -0.37668,0.12238 -0.091,0.25039 -0.4849,0.29179 -0.3939,0.0414 -0.14088,-0.14322 -0.53477,-0.18462 -0.3939,-0.0414 -0.18495,0.19172 -0.56164,0.0693 -0.37667,-0.12239 -0.0705,-0.18805 -0.41351,-0.38607 -0.34301,-0.19804 -0.24678,0.1 -0.54112,-0.16506 -0.29432,-0.26502 0.012,-0.20063 -0.22078,-0.52106 -0.2328,-0.32041 -0.26616,-0.009 -0.42725,-0.37091 -0.1611,-0.36183 0.0926,-0.17828 0.0102,-0.5657 -0.0823,-0.3874 -0.23952,-0.11651 -0.23952,-0.51257 0,-0.39607 0.15718,-0.12529 0.23952,-0.5127 0.0823,-0.38741 -0.17136,-0.20387 -0.0102,-0.56569 0.16109,-0.36182 0.19445,-0.0505 0.42725,-0.37092 0.2328,-0.32043 -0.0735,-0.25591 0.22078,-0.52093 0.29434,-0.26502 0.19811,0.0329 0.54112,-0.16506 0.34299,-0.19803 0.0369,-0.2638 0.41351,-0.38619 0.37669,-0.12239 0.16774,0.11073 0.56164,0.0693 0.34465,-0.0363 0.1941,-0.18208 0.41495,-0.19024 z"
         style="opacity:1;fill:#ffffff;fill-opacity:1;stroke:none;stroke-width:0.08067282;stroke-linecap:round;stroke-linejoin:round;stroke-miterlimit:4;stroke-dasharray:none;stroke-dashoffset:0;stroke-opacity:1"
         inkscape:connector-curvature="0" />
      <g
         id="g1003"
         transform="translate(106.25893,-18.230504)">
        <circle
           style="opacity:1;fill:#b3b3b3;fill-opacity:1;stroke:none;stroke-width:0.18910597;stroke-linecap:round;stroke-linejoin:round;stroke-miterlimit:4;stroke-dasharray:none;stroke-dashoffset:0;stroke-opacity:1"
           id="circle995"
           cx="693.85455"
           cy="-233.31363"
           r="9.0690699" />
        <path
           sodipodi:type="star"
           style="opacity:1;fill:#4d4d4d;fill-opacity:1;stroke:none;stroke-width:0.94505602;stroke-linecap:round;stroke-linejoin:round;stroke-miterlimit:4;stroke-dasharray:none;stroke-dashoffset:0;stroke-opacity:1"
           id="path997"
           sodipodi:sides="5"
           sodipodi:cx="693.5141"
           sodipodi:cy="-233.65408"
           sodipodi:r1="6.4523163"
           sodipodi:r2="12.174182"
           sodipodi:arg1="0.78539816"
           sodipodi:arg2="1.4137167"
           inkscape:flatsided="false"
           inkscape:rounded="0.7"
           inkscape:randomized="0"
           d="m 698.07658,-229.09161 c -3.92075,3.92075 2.81848,6.59443 -2.65802,7.46182 -5.4765,0.8674 0.10667,-3.75796 -4.83375,-6.27524 -4.94043,-2.51727 -5.40071,4.71834 -7.91799,-0.22209 -2.51727,-4.94043 3.60701,-1.05982 4.4744,-6.53633 0.86739,-5.4765 -6.15631,-3.67834 -2.23557,-7.59908 3.92075,-3.92074 2.12258,3.10296 7.59908,2.23557 5.47651,-0.86739 1.59591,-6.99167 6.53633,-4.4744 4.94043,2.51727 -2.29518,2.97756 0.2221,7.91799 2.51727,4.94042 7.14263,-0.64276 6.27524,4.83375 -0.8674,5.4765 -3.54108,-1.26273 -7.46182,2.65801 z"
           inkscape:transform-center-x="0.087190918"
           inkscape:transform-center-y="-1.0471805"
           transform="rotate(43.053487,693.16125,-232.90951)" />
        <path
           style="opacity:1;fill:#241c1c;fill-opacity:1;stroke:none;stroke-width:1.32025754;stroke-linecap:round;stroke-linejoin:round;stroke-miterlimit:4;stroke-dasharray:none;stroke-dashoffset:0;stroke-opacity:1"
           d="m 2626.9688,-949.51758 c -5.6587,0.20905 -1.8021,3.94685 -10.6329,4.875 -10.0923,1.06075 -4.7355,-4.91322 -14.3867,-1.77734 -9.6512,3.13587 -1.8073,4.82058 -10.5957,9.89453 -8.7883,5.07395 -6.3258,-2.56176 -13.8672,4.22851 -7.5413,6.79028 0.3086,5.13979 -5.6562,13.34961 -5.9648,8.20983 -6.8198,0.23138 -10.9473,9.50196 -4.1275,9.27057 2.3736,4.56994 0.2637,14.49609 -2.1099,9.92615 -6.1367,2.98686 -6.1367,13.13477 0,10.1479 4.0268,3.20861 6.1367,13.13476 2.1099,9.92615 -4.3912,5.22357 -0.2637,14.49414 4.1275,9.27058 4.9825,1.29408 10.9473,9.50391 5.9648,8.20983 -1.8851,6.55738 5.6562,13.34766 7.5414,6.79027 5.0789,-0.84544 13.8672,4.22851 8.7884,5.07395 0.9445,6.75866 10.5957,9.89453 9.6512,3.13588 4.2944,-2.83613 14.3867,-1.77539 10.0924,1.06075 3.6128,5.78926 13.7051,4.72852 10.0923,-1.06075 2.7687,-4.33874 12.4199,-7.47461 9.6513,-3.13588 5.6551,3.82004 14.4434,-1.25391 8.7883,-5.07395 0.7653,-5.09058 8.3066,-11.88086 7.5414,-6.79027 6.7208,1.1903 12.6856,-7.01953 5.9648,-8.20983 -1.3717,-4.96185 2.7558,-14.23242 4.1276,-9.27057 6.6226,-1.64612 8.7325,-11.57227 2.1098,-9.92615 -3.2715,-3.97514 -3.2715,-14.12304 0,-10.14791 5.3813,-4.1969 3.2715,-14.12305 -2.1099,-9.92615 -4.6049,-2.30169 -8.7325,-11.57227 -4.1275,-9.27057 3.209,-6.02259 -2.7558,-14.23242 -5.9648,-8.20983 -5.1442,-0.22925 -12.6856,-7.01953 -7.5413,-6.79027 0.4817,-6.80691 -8.3066,-11.88086 -8.7883,-5.07395 -4.7921,1.88197 -14.4434,-1.2539 -9.6512,-3.13588 -2.3276,-6.41582 -12.4199,-7.47657 -1.2615,-0.13259 -2.2639,-0.17439 -3.0722,-0.14453 z m -1.6348,24.45899 c 0.5163,-0.0191 1.1551,0.007 1.9609,0.0918 6.4463,0.67754 1.771,2.7724 7.9356,4.77539 6.1646,2.003 3.6111,-2.44013 9.2246,0.80079 5.6134,3.24091 0.4897,3.25069 5.3066,7.58789 4.817,4.33719 4.2917,-0.75954 8.1016,4.48437 3.8099,5.24391 -0.8767,3.16839 1.7597,9.08984 2.6364,5.92145 4.2305,1.05239 5.5782,7.39258 1.3476,6.34019 -2.0899,2.53965 -2.0899,9.02149 0,6.48183 3.4375,2.67934 2.0899,9.01953 -1.3477,6.34019 -2.9418,1.47113 -5.5782,7.39258 -2.6364,5.92145 2.0502,3.84593 -1.7597,9.08984 -3.8099,5.24391 -3.2846,0.14718 -8.1016,4.48438 -4.8169,4.33719 0.3068,4.34697 -5.3066,7.58789 -5.6135,3.24091 -3.06,-1.20222 -9.2246,0.80078 -6.1646,2.00299 -1.4893,4.09785 -7.9356,4.77539 -6.4463,0.67753 -2.3056,-2.34395 -8.7519,-3.02149 -6.4464,-0.67753 -3.0268,3.13777 -9.1914,1.13477 -6.1646,-2.003 -1.1542,-3.07744 -6.7676,-6.31836 -5.6134,-3.24092 -4.0385,1.63602 -8.8555,-2.70117 -4.8169,-4.3372 0.1967,-3.28343 -3.6133,-8.52735 -3.8099,-5.24391 -4.3558,-0.14886 -6.9922,-6.07031 -2.6364,-5.92145 1.5157,-2.91762 0.168,-9.25781 -1.3476,-6.34019 -3.9199,-1.90684 -3.9199,-8.38867 0,-6.48184 2.5723,-2.05044 3.9199,-8.39063 1.3477,-6.34019 -2.8044,-3.33636 -0.168,-9.25781 2.6364,-5.92145 3.1823,-0.8264 6.9922,-6.07031 3.81,-5.24392 -1.2036,-4.1882 3.6133,-8.52539 4.817,-4.3372 3.2421,0.53974 8.8555,-2.70118 5.6134,-3.24091 0.603,-4.31731 6.7676,-6.32031 6.1646,-2.00299 2.745,1.8123 9.1914,1.13477 5.6405,-0.59285 3.1766,-2.97976 6.791,-3.11328 z"
           transform="scale(0.26458333)"
           id="path999"
           inkscape:connector-curvature="0" />
        <path
           id="path1001"
           d="m 694.13114,-237.45049 c -0.34576,0.0129 -0.1101,0.24117 -0.6497,0.29788 -0.61669,0.0648 -0.28936,-0.30022 -0.87909,-0.1086 -0.58972,0.19161 -0.11043,0.29456 -0.64744,0.60459 -0.53699,0.31004 -0.38653,-0.15653 -0.84734,0.25838 -0.46079,0.41491 0.0189,0.31407 -0.34561,0.81572 -0.36448,0.50165 -0.41671,0.0142 -0.66893,0.5806 -0.25219,0.56647 0.14504,0.27924 0.0161,0.88577 -0.12892,0.60653 -0.37497,0.18252 -0.37497,0.80258 0,0.62008 0.24605,0.19607 0.37497,0.80259 0.12893,0.60653 -0.26832,0.31918 -0.0161,0.88565 0.25222,0.56647 0.30445,0.0791 0.66893,0.58073 0.36447,0.50165 -0.11518,0.40067 0.34561,0.81558 0.46081,0.41492 0.31035,-0.0516 0.84734,0.25838 0.53701,0.31004 0.0577,0.41299 0.64744,0.60459 0.58973,0.19162 0.2624,-0.17329 0.87909,-0.10847 0.61668,0.0648 0.22076,0.35373 0.83743,0.28893 0.61668,-0.0648 0.16918,-0.26512 0.75891,-0.45673 0.58972,-0.19161 0.34554,0.23341 0.88254,-0.0766 0.537,-0.31004 0.0468,-0.31106 0.50756,-0.72597 0.46081,-0.4149 0.41068,0.0727 0.77514,-0.42892 0.36448,-0.50165 -0.0838,-0.30319 0.16839,-0.86965 0.25222,-0.56647 0.40467,-0.10059 0.53359,-0.70711 0.12892,-0.60653 -0.19989,-0.2429 -0.19989,-0.86298 0,-0.62006 0.32881,-0.25644 0.19989,-0.86297 -0.12892,-0.60652 -0.28137,-0.14065 -0.53359,-0.70711 -0.25221,-0.56646 0.19609,-0.368 -0.16839,-0.86965 -0.36446,-0.50166 -0.31433,-0.014 -0.77514,-0.42892 -0.4608,-0.41492 0.0294,-0.41594 -0.50756,-0.72597 -0.537,-0.31003 -0.29282,0.11499 -0.88254,-0.0766 -0.58973,-0.19161 -0.14223,-0.39203 -0.75891,-0.45685 -0.0771,-0.008 -0.13833,-0.0106 -0.18773,-0.009 z m -0.0999,1.49454 c 0.0316,-9.4e-4 0.0706,4.4e-4 0.11982,0.006 0.39389,0.0415 0.10822,0.16941 0.4849,0.29179 0.37668,0.12239 0.22065,-0.1491 0.56366,0.0489 0.343,0.19803 0.0299,0.19864 0.32425,0.46365 0.29434,0.26502 0.26224,-0.0464 0.49504,0.27401 0.2328,0.32043 -0.0536,0.19361 0.10753,0.55543 0.16109,0.36183 0.2585,0.0643 0.34085,0.45172 0.0823,0.38741 -0.12771,0.15518 -0.12771,0.55125 0,0.39606 0.21004,0.16371 0.12771,0.55112 -0.0824,0.38741 -0.17976,0.0899 -0.34085,0.45172 -0.1611,0.36182 0.12527,0.235 -0.10753,0.55542 -0.2328,0.32042 -0.2007,0.009 -0.49504,0.27401 -0.29433,0.26502 0.0188,0.26562 -0.32425,0.46366 -0.34301,0.19802 -0.18698,-0.0735 -0.56366,0.0489 -0.37668,0.12238 -0.091,0.25039 -0.4849,0.29179 -0.3939,0.0414 -0.14088,-0.14322 -0.53477,-0.18462 -0.3939,-0.0414 -0.18495,0.19172 -0.56164,0.0693 -0.37667,-0.12239 -0.0705,-0.18805 -0.41351,-0.38607 -0.34301,-0.19804 -0.24678,0.1 -0.54112,-0.16506 -0.29432,-0.26502 0.012,-0.20063 -0.22078,-0.52106 -0.2328,-0.32041 -0.26616,-0.009 -0.42725,-0.37091 -0.1611,-0.36183 0.0926,-0.17828 0.0102,-0.5657 -0.0823,-0.3874 -0.23952,-0.11651 -0.23952,-0.51257 0,-0.39607 0.15718,-0.12529 0.23952,-0.5127 0.0823,-0.38741 -0.17136,-0.20387 -0.0102,-0.56569 0.16109,-0.36182 0.19445,-0.0505 0.42725,-0.37092 0.2328,-0.32043 -0.0735,-0.25591 0.22078,-0.52093 0.29434,-0.26502 0.19811,0.0329 0.54112,-0.16506 0.34299,-0.19803 0.0369,-0.2638 0.41351,-0.38619 0.37669,-0.12239 0.16774,0.11073 0.56164,0.0693 0.34465,-0.0363 0.1941,-0.18208 0.41495,-0.19024 z"
           style="opacity:1;fill:#ffffff;fill-opacity:1;stroke:none;stroke-width:0.08067282;stroke-linecap:round;stroke-linejoin:round;stroke-miterlimit:4;stroke-dasharray:none;stroke-dashoffset:0;stroke-opacity:1"
           inkscape:connector-curvature="0" />
      </g>
      <path
         style="fill:#ff0000;stroke:none;stroke-width:0.26458332px;stroke-linecap:butt;stroke-linejoin:miter;stroke-opacity:1"
         d="m 785.75876,-305.53594 -34.21049,32.7231 4.71014,-0.74371 35.2021,-29.00455 z"
         id="path1005"
         inkscape:connector-curvature="0"
         sodipodi:nodetypes="ccccc" />
    </g>
    <circle
       inkscape:export-ydpi="31.15"
       inkscape:export-xdpi="31.15"
       inkscape:export-filename="/home/erick/AndroidStudioProjects/AprendiendoEspanol/app/src/main/res/mipmap-hdpi/colores.png"
       cy="-450.38525"
       cx="727.27814"
       id="circle1036"
       style="opacity:1;fill:#ffaaee;fill-opacity:1;stroke:none;stroke-width:5.43795681;stroke-linecap:square;stroke-linejoin:miter;stroke-miterlimit:4;stroke-dasharray:none;stroke-dashoffset:0;stroke-opacity:1"
       r="53" />
    <g
       id="g1043"
       style="stroke:#000000;stroke-width:0.76200002;stroke-miterlimit:4;stroke-dasharray:none;stroke-opacity:1"
       transform="matrix(1.1348606,0,0,1.1348606,-96.739163,58.264426)"
       inkscape:export-filename="/home/erick/AndroidStudioProjects/AprendiendoEspanol/app/src/main/res/mipmap-hdpi/colores.png"
       inkscape:export-xdpi="31"
       inkscape:export-ydpi="31">
      <path
         sodipodi:nodetypes="ssszs"
         inkscape:connector-curvature="0"
         id="path1025"
         d="m 762.08631,-458.49721 c 6.88285,18.59865 -16.07652,35.90789 -35.9079,35.90789 -19.83138,0 -43.36436,-17.53169 -35.9079,-35.90789 13.54172,-33.3731 12.49704,-1.84202 35.9079,-1.84202 23.41086,0 23.63572,-31.31949 35.9079,1.84202 z"
         style="opacity:1;fill:#00ff00;fill-opacity:1;stroke:#000000;stroke-width:0.76200002;stroke-linecap:round;stroke-linejoin:round;stroke-miterlimit:4;stroke-dasharray:none;stroke-dashoffset:0;stroke-opacity:1" />
      <circle
         r="9.7331085"
         cy="-450.20325"
         cx="746.11407"
         id="path1028"
         style="opacity:1;fill:#0044aa;fill-opacity:1;stroke:#000000;stroke-width:0.76200002;stroke-linecap:round;stroke-linejoin:round;stroke-miterlimit:4;stroke-dasharray:none;stroke-dashoffset:0;stroke-opacity:1" />
      <circle
         style="opacity:1;fill:#ffff00;fill-opacity:1;stroke:#000000;stroke-width:0.76200002;stroke-linecap:round;stroke-linejoin:round;stroke-miterlimit:4;stroke-dasharray:none;stroke-dashoffset:0;stroke-opacity:1"
         id="circle1030"
         cx="727.70581"
         cy="-438.56583"
         r="7.6172152" />
      <circle
         r="6.1360903"
         cy="-444.49033"
         cx="709.08594"
         id="circle1032"
         style="opacity:1;fill:#d45500;fill-opacity:1;stroke:#000000;stroke-width:0.76200002;stroke-linecap:round;stroke-linejoin:round;stroke-miterlimit:4;stroke-dasharray:none;stroke-dashoffset:0;stroke-opacity:1" />
      <circle
         style="opacity:1;fill:#d40000;fill-opacity:1;stroke:#000000;stroke-width:0.76200002;stroke-linecap:round;stroke-linejoin:round;stroke-miterlimit:4;stroke-dasharray:none;stroke-dashoffset:0;stroke-opacity:1"
         id="circle1034"
         cx="700.19922"
         cy="-459.08997"
         r="4.6549649" />
    </g>
    <g
       id="g912"
       transform="matrix(2.0909091,0,0,2.0909091,-670.19497,333.43251)"
       inkscape:export-filename="/home/erick/AndroidStudioProjects/AprendiendoEspanol/app/src/main/res/mipmap-hdpi/paises.png"
       inkscape:export-xdpi="31.15"
       inkscape:export-ydpi="31.15">
      <circle
         r="16.361544"
         cy="-304.78253"
         cx="655.9491"
         id="path892"
         style="opacity:1;fill:#00aad4;fill-opacity:1;stroke:none;stroke-width:0.80467206;stroke-linecap:round;stroke-linejoin:round;stroke-miterlimit:4;stroke-dasharray:none;stroke-dashoffset:0;stroke-opacity:1" />
      <path
         id="path896"
         transform="scale(0.26458333)"
         d="m 2470.7695,-1213.1289 a 61.838905,61.838905 0 0 0 -23.5625,8.334 l 1.5196,2.7344 3.5136,3.5136 2.3418,1.4043 c 0,0 -0.2332,0.7033 1.875,0.9375 2.1081,0.2344 5.3866,0.2344 5.3868,0.2344 l 2.8105,-0.4688 c 0,0 2.1098,-0.4674 2.8125,-1.6386 0.7027,-1.1712 1.8735,-4.2175 2.8105,-5.3887 0.937,-1.1712 2.1075,-3.0449 2.1075,-3.0449 0,0 0.4684,-2.5767 -0.2344,-3.5137 -0.6351,-0.8467 -1.2646,-0.5763 -1.3809,-3.1035 z m 35.4512,5.668 -7.3672,6.1035 c 0,0 -3.7476,2.107 -6.3242,1.4043 -2.5766,-0.7027 -4.4506,-1.1708 -6.793,-2.5762 -2.3424,-1.4055 -4.4499,-3.5128 -5.8554,-2.1074 -1.4055,1.4054 -9.1348,5.1532 -9.1348,6.5586 0,1.4054 0.2343,4.6846 0,6.3242 -0.2343,1.6397 -1.875,4.6836 -1.875,4.6836 0,0 -2.5762,1.8744 -2.5762,4.2168 0,2.3424 0.7016,5.6219 1.4043,7.0273 0.7027,1.4055 0.4688,5.6211 0.4688,5.6211 0,0 -2.3423,5e-4 -3.045,0.9375 -0.7026,0.9369 -2.577,4.684 -3.9824,5.3867 -1.4055,0.7027 -3.0445,2.8125 -2.5761,6.0918 0.4685,3.2793 2.8115,8.9011 4.2167,10.0723 1.4055,1.1712 3.7468,3.2782 4.918,4.6836 1.1712,1.4054 1.6406,3.9824 4.9199,3.9824 3.2795,0 6.0903,0.2351 6.793,1.4063 0.7028,1.1712 4.2169,4.2156 4.4512,5.6211 0.2343,1.4054 2.1075,5.6205 2.3418,7.9629 0.2343,2.3424 1.1719,5.3881 1.4062,7.7304 0.2344,2.3424 0.9359,7.7294 1.6387,9.1348 0.7027,1.4055 4.9199,8.9023 4.9199,8.9023 l 2.5762,1.8731 c 0,0 2.8097,-3.0439 4.6836,-4.4492 1.874,-1.4055 3.2793,-2.8125 3.2793,-2.8125 v -5.1524 l 2.8125,-2.1074 -0.2344,-4.6856 0.4668,-3.5136 3.0469,-0.4688 c 0,0 -1.4064,-1.6399 -1.6406,-3.748 -0.2344,-2.1081 -0.9375,-8.1973 -0.9375,-8.1973 l -0.2344,-6.3242 2.1094,-0.4688 c 0,0 0.2347,-3.7488 0.7031,-5.1543 0.4685,-1.4053 -1.1725,-2.1075 1.1699,-5.8554 2.3424,-3.7478 3.5137,-8.1992 3.5137,-8.1992 0,0 0.9364,-2.576 2.5761,-2.1075 1.6396,0.4684 3.5137,3.046 3.5137,4.92 0,1.8738 0.7031,2.3418 0.7031,2.3418 0,0 2.8117,1.1718 4.6856,1.1718 1.8739,0 5.153,0.2326 6.3242,0.4668 1.1711,0.2344 -1.8734,-3.2778 0.9375,-3.9804 2.0896,-0.5225 5.2021,-0.655 6.668,-0.6895 a 61.838905,61.838905 0 0 0 -34.6719,-52.0273 z m -68.7324,9.9414 a 61.838905,61.838905 0 0 0 -17.4981,27.75 l 2.0332,-0.9043 c 0,0 3.7487,-0.2344 4.6856,-0.2344 0.937,0 -0.2352,-4.919 1.873,0 2.1082,4.919 2.1094,6.3262 2.1094,6.3262 0,0 3.0439,2.8106 4.6836,3.0449 1.6396,0.2343 5.1543,0.4687 5.1543,0.4687 l 1.873,-1.4062 0.7032,-4.6856 c 0,0 1.873,-2.1079 1.873,-3.0449 0,-0.9369 0.4688,-4.4505 0.4688,-6.5586 0,-2.1082 0.9375,-4.6836 0.9375,-4.6836 l 1.873,-2.8125 2.3438,-2.8105 c 0,0 0.2332,-1.6393 -1.875,-2.5762 -2.1081,-0.937 -5.6217,-4.4512 -6.5586,-4.4512 -0.937,0 -3.2793,-1.873 -3.2793,-1.873 z m -16.5938,35.8789 c -0.8646,0.034 -1.6233,0.2209 -2.1504,0.5722 -0.2792,0.1862 -0.5223,0.4143 -0.7461,0.6524 a 61.838905,61.838905 0 0 0 -0.6601,8.4824 61.838905,61.838905 0 0 0 25.3633,49.8516 c 3.995,-0.4726 9.1089,-1.0782 12.0078,0.076 5.1117,2.0358 7.8477,6.7856 9.1582,9.9063 a 61.838905,61.838905 0 0 0 15.3105,2.0039 61.838905,61.838905 0 0 0 0.4102,-0.014 c 1.1285,-1.4098 2.6348,-3.7344 2.6348,-3.7344 0,0 1.4056,-2.1079 0.4687,-3.0449 -0.937,-0.9369 -4.4512,-7.2597 -4.4512,-7.2597 v -5.8575 l 0.2344,-4.9179 -0.4687,-4.6856 -3.9805,-0.9375 c 0,0 -6.7937,-0.4668 -8.1992,-0.4668 -1.4054,0 -10.0715,4.2149 -12.1797,4.2149 -2.1081,0 -3.7481,-0.9356 -7.0274,-0.9356 -3.2793,0 -8.4322,0.4685 -9.3691,0 -0.937,-0.4685 -3.2793,-2.5781 -3.2793,-2.5781 0,0 0.2333,-3.2778 1.6387,-4.2148 1.4054,-0.937 3.748,-1.1719 3.748,-1.1719 0,0 1.8731,1.4045 1.8731,-1.6406 0,-3.045 1.1718,-5.8555 1.1718,-5.8555 l 0.7032,-4.4492 c 0,0 1.1701,-3.2795 1.4043,-6.793 0.2343,-3.5136 0.7041,-6.0903 -0.9356,-7.0273 -1.6397,-0.9369 -7.7304,-2.5782 -7.7304,-2.5782 0,0 -5.1524,0.4694 -5.1524,1.4063 0,0.937 -2.1095,2.1074 -2.3437,5.3867 -0.2344,3.2793 0.7042,4.2168 -0.7012,4.2168 -1.4054,0 -3.0469,-1.4043 -3.0469,-1.4043 0,0 -1.6387,0.9355 -1.6387,-2.3437 0,-3.2794 0.2344,-5.1524 0.2344,-5.1524 0,0 1.6394,-1.405 3.0449,-2.5762 1.4054,-1.1712 0.9375,-3.0468 0.9375,-3.0468 0,0 0.7018,-1.8738 -1.6406,-3.045 -1.4639,-0.732 -3.2014,-1.0962 -4.6426,-1.039 z m 95.9961,44.6074 -3.2793,6.0918 c 0,0 -5.154,0.2336 -4.6855,2.1074 0.4684,1.8739 4.9199,3.0449 4.9199,3.0449 0,0 0.9356,-2.108 1.1699,-3.0449 0.2344,-0.937 3.0449,-4.2168 3.0449,-4.2168 0,0 1.6401,-3.2795 0.7032,-3.5137 -0.937,-0.2343 -1.8731,-0.4687 -1.8731,-0.4687 z"
         style="fill:#00aa44;stroke:none;stroke-width:0.99999994px;stroke-linecap:butt;stroke-linejoin:miter;stroke-opacity:1"
         inkscape:connector-curvature="0" />
    </g>
    <path
       style="opacity:1;fill:#ffffff;fill-opacity:1;stroke:none;stroke-width:0.2430637;stroke-linecap:round;stroke-linejoin:round;stroke-miterlimit:4;stroke-dasharray:none;stroke-dashoffset:0;stroke-opacity:1"
       d="m 482.10007,-336.2756 c -2.04339,0 -3.68834,1.66198 -3.68834,3.72643 v 4.11808 h -13.44117 c -1.53704,0 -2.77434,1.46073 -2.77434,3.27503 v 27.08419 c 0,1.8143 1.2373,3.27503 2.77434,3.27503 h 55.32985 c 1.53703,0 2.77461,-1.46073 2.77461,-3.27503 v -27.08419 c 0,-1.8143 -1.23758,-3.27503 -2.77461,-3.27503 H 506.8595 v -4.11808 c 0,-2.06445 -1.64521,-3.72643 -3.68861,-3.72643 z m 10.53541,12.0059 a 12.655884,12.655884 0 0 1 12.65601,12.65573 12.655884,12.655884 0 0 1 -12.65601,12.65601 12.655884,12.655884 0 0 1 -12.65573,-12.65601 12.655884,12.655884 0 0 1 12.65573,-12.65573 z"
       id="rect998"
       inkscape:connector-curvature="0"
       inkscape:export-filename="/home/erick/AndroidStudioProjects/AprendiendoEspanol/app/src/main/res/mipmap-hdpi/atractivos_turisticos.png"
       inkscape:export-xdpi="31.15"
       inkscape:export-ydpi="31.15" />
    <g
       id="g1044"
       transform="translate(-2.3745457,1.7941926)"
       inkscape:export-filename="/home/erick/AndroidStudioProjects/AprendiendoEspanol/app/src/main/res/mipmap-hdpi/emergencias.png"
       inkscape:export-xdpi="31.15"
       inkscape:export-ydpi="31.15">
      <path
         inkscape:connector-curvature="0"
         id="path1026"
         d="m 549.58573,-514.54804 4.55764,0.0877 2.97997,11.39407 -10.60524,-0.0877 z"
         style="fill:#ffffff;fill-opacity:1;stroke:#e10424;stroke-width:1.88199997;stroke-linecap:round;stroke-linejoin:round;stroke-miterlimit:4;stroke-dasharray:none;stroke-opacity:1" />
      <path
         sodipodi:nodetypes="ccccccccccccc"
         inkscape:connector-curvature="0"
         id="path1009"
         d="m 515.47409,-472.96041 -0.0849,-13.67235 c 0,-0.5681 0.12482,-2.56268 0.25322,-3.29074 l 2.37262,-13.70842 c 0.36292,-1.79354 1.30615,-3.97764 4.2115,-4.10159 h 44.62563 c 2.35451,0.0436 4.67104,0.45935 6.52836,3.81703 l 6.85894,11.77026 c 0.83432,1.21082 0.95679,2.54337 0.95679,4.12092 v 14.25437 c 0,2.85554 -1.12825,5.32988 -5.57779,5.32988 h -55.04373 c -1.07748,0 -5.07805,-0.88754 -5.10061,-4.51936 z"
         style="opacity:1;fill:#ffffff;fill-opacity:1;stroke:#76ac9f;stroke-width:1.90552914;stroke-linecap:round;stroke-linejoin:round;stroke-miterlimit:4;stroke-dasharray:none;stroke-opacity:1" />
      <circle
         r="7.537612"
         cy="-468.62115"
         cx="528.90106"
         id="path1017"
         style="opacity:1;fill:#ffffff;fill-opacity:1;stroke:#76ac9f;stroke-width:2.28308964;stroke-linecap:round;stroke-linejoin:round;stroke-miterlimit:4;stroke-dasharray:none;stroke-dashoffset:0;stroke-opacity:1" />
      <circle
         style="opacity:1;fill:#ffffff;fill-opacity:1;stroke:#76ac9f;stroke-width:2.28308964;stroke-linecap:round;stroke-linejoin:round;stroke-miterlimit:4;stroke-dasharray:none;stroke-dashoffset:0;stroke-opacity:1"
         id="circle1019"
         cx="567.64093"
         cy="-468.62115"
         r="7.537612" />
      <path
         inkscape:connector-curvature="0"
         id="rect1021"
         d="m 533.72169,-502.97878 v 4.95215 h -4.95216 v 5.60949 h 4.95216 v 4.95215 h 5.60948 v -4.95215 h 4.95215 v -5.60949 h -4.95215 v -4.95215 z"
         style="opacity:1;fill:#ffffff;fill-opacity:1;stroke:#e10424;stroke-width:1.88199997;stroke-linecap:round;stroke-linejoin:round;stroke-miterlimit:4;stroke-dasharray:none;stroke-dashoffset:0;stroke-opacity:1" />
      <path
         inkscape:connector-curvature="0"
         id="rect1028"
         d="m 561.23991,-502.77569 v 15.24609 h 19.95641 v -0.49557 c 0,-1.57755 -0.12274,-2.91036 -0.95705,-4.1212 l -6.19395,-10.62932 z"
         style="opacity:1;fill:#ffffff;fill-opacity:1;stroke:#76ac9f;stroke-width:1.88199997;stroke-linecap:round;stroke-linejoin:round;stroke-miterlimit:4;stroke-dasharray:none;stroke-dashoffset:0;stroke-opacity:1" />
      <rect
         y="-482.9433"
         x="515.43243"
         height="4.4622393"
         width="65.788841"
         id="rect1030"
         style="opacity:1;fill:#ffffff;fill-opacity:1;stroke:#e10424;stroke-width:1.88199997;stroke-linecap:round;stroke-linejoin:round;stroke-miterlimit:4;stroke-dasharray:none;stroke-dashoffset:0;stroke-opacity:1" />
    </g>
    <g
       id="g1081"
       transform="translate(126.9934,-113.65134)">
      <path
         sodipodi:nodetypes="czzcc"
         inkscape:connector-curvature="0"
         id="path1057"
         d="m 633.47385,-648.737 c 0,0 -4.87681,-2.37843 -6.22215,-5.54207 -1.34535,-3.16365 -0.0778,-7.96393 -0.17322,-11.51636 -0.0954,-3.55242 -3.7507,-7.56059 -2.88652,-17.50224 0,0 -0.13317,9.27784 -4.0154,13.32104"
         style="fill:none;stroke:#1a2e44;stroke-width:2.40808582;stroke-linecap:round;stroke-linejoin:round;stroke-miterlimit:4;stroke-dasharray:none;stroke-opacity:1" />
      <path
         sodipodi:nodetypes="cccc"
         inkscape:connector-curvature="0"
         id="path1059"
         d="m 613.6753,-673.42718 c 0,-8.52647 2.79206,-11.48346 2.79206,-11.48346 -6.72529,-17.83368 13.31246,-19.72475 13.31246,-19.72475 0,0 1.32427,-2.55562 6.13349,-2.85765"
         style="fill:none;stroke:#1a2e44;stroke-width:2.40808582;stroke-linecap:round;stroke-linejoin:round;stroke-miterlimit:4;stroke-dasharray:none;stroke-opacity:1" />
      <path
         sodipodi:nodetypes="csc"
         inkscape:connector-curvature="0"
         id="path1061"
         d="m 624.19196,-683.29767 c 0,0 0.65388,1.49326 2.01067,2.44141 3.8902,2.71857 12.04903,5.98874 15.35628,-3.98468"
         style="fill:none;stroke:#1a2e44;stroke-width:2.40808582;stroke-linecap:round;stroke-linejoin:round;stroke-miterlimit:4;stroke-dasharray:none;stroke-opacity:1" />
      <path
         style="fill:none;stroke:#1a2e44;stroke-width:2.40808582;stroke-linecap:round;stroke-linejoin:round;stroke-miterlimit:4;stroke-dasharray:none;stroke-opacity:1"
         d="m 649.64397,-648.737 c 0,0 4.8768,-2.37843 6.22215,-5.54207 1.34535,-3.16365 0.0778,-7.96393 0.17322,-11.51636 0.0954,-3.55242 3.7507,-7.56059 2.88652,-17.50224 0,0 0.13317,9.27784 4.0154,13.32104"
         id="path1067"
         inkscape:connector-curvature="0"
         sodipodi:nodetypes="czzcc" />
      <path
         style="fill:none;stroke:#1a2e44;stroke-width:2.40808582;stroke-linecap:round;stroke-linejoin:round;stroke-miterlimit:4;stroke-dasharray:none;stroke-opacity:1"
         d="m 669.44252,-673.42718 c 0,-8.52647 -2.79207,-11.48346 -2.79207,-11.48346 6.7253,-17.83368 -13.31245,-19.72475 -13.31245,-19.72475 0,0 -1.32427,-2.55562 -6.13349,-2.85765"
         id="path1069"
         inkscape:connector-curvature="0"
         sodipodi:nodetypes="cccc" />
      <path
         style="fill:none;stroke:#1a2e44;stroke-width:2.40808582;stroke-linecap:round;stroke-linejoin:round;stroke-miterlimit:4;stroke-dasharray:none;stroke-opacity:1"
         d="m 658.92586,-683.29767 c 0,0 -0.65388,1.49326 -2.01067,2.44141 -3.8902,2.71857 -12.04903,5.98874 -15.35628,-3.98468"
         id="path1071"
         inkscape:connector-curvature="0"
         sodipodi:nodetypes="csc" />
    </g>
    <g
       transform="translate(122.78636,-41.781078)"
       id="g1095">
      <path
         style="fill:none;stroke:#1a2e44;stroke-width:2.40808582;stroke-linecap:round;stroke-linejoin:round;stroke-miterlimit:4;stroke-dasharray:none;stroke-opacity:1"
         d="m 633.47385,-648.737 c 0,0 -4.87681,-2.37843 -6.22215,-5.54207 -1.34535,-3.16365 -0.0778,-7.96393 -0.17322,-11.51636 -0.0954,-3.55242 -3.7507,-7.56059 -2.88652,-17.50224 0,0 -0.13317,9.27784 -4.0154,13.32104"
         id="path1083"
         inkscape:connector-curvature="0"
         sodipodi:nodetypes="czzcc" />
      <path
         style="fill:none;stroke:#1a2e44;stroke-width:2.40808582;stroke-linecap:round;stroke-linejoin:round;stroke-miterlimit:4;stroke-dasharray:none;stroke-opacity:1"
         d="m 613.6753,-673.42718 c 0,-8.52647 2.79206,-11.48346 2.79206,-11.48346 -6.72529,-17.83368 13.31246,-19.72475 13.31246,-19.72475 0,0 1.32427,-2.55562 6.13349,-2.85765"
         id="path1085"
         inkscape:connector-curvature="0"
         sodipodi:nodetypes="cccc" />
      <path
         style="fill:none;stroke:#1a2e44;stroke-width:2.40808582;stroke-linecap:round;stroke-linejoin:round;stroke-miterlimit:4;stroke-dasharray:none;stroke-opacity:1"
         d="m 624.19196,-683.29767 c 0,0 0.65388,1.49326 2.01067,2.44141 3.8902,2.71857 12.04903,5.98874 15.35628,-3.98468"
         id="path1087"
         inkscape:connector-curvature="0"
         sodipodi:nodetypes="csc" />
      <path
         sodipodi:nodetypes="czzcc"
         inkscape:connector-curvature="0"
         id="path1089"
         d="m 649.64397,-648.737 c 0,0 4.8768,-2.37843 6.22215,-5.54207 1.34535,-3.16365 0.0778,-7.96393 0.17322,-11.51636 0.0954,-3.55242 3.7507,-7.56059 2.88652,-17.50224 0,0 0.13317,9.27784 4.0154,13.32104"
         style="fill:none;stroke:#1a2e44;stroke-width:2.40808582;stroke-linecap:round;stroke-linejoin:round;stroke-miterlimit:4;stroke-dasharray:none;stroke-opacity:1" />
      <path
         sodipodi:nodetypes="cccc"
         inkscape:connector-curvature="0"
         id="path1091"
         d="m 669.44252,-673.42718 c 0,-8.52647 -2.79207,-11.48346 -2.79207,-11.48346 6.7253,-17.83368 -13.31245,-19.72475 -13.31245,-19.72475 0,0 -1.32427,-2.55562 -6.13349,-2.85765"
         style="fill:none;stroke:#1a2e44;stroke-width:2.40808582;stroke-linecap:round;stroke-linejoin:round;stroke-miterlimit:4;stroke-dasharray:none;stroke-opacity:1" />
      <path
         sodipodi:nodetypes="csc"
         inkscape:connector-curvature="0"
         id="path1093"
         d="m 658.92586,-683.29767 c 0,0 -0.65388,1.49326 -2.01067,2.44141 -3.8902,2.71857 -12.04903,5.98874 -15.35628,-3.98468"
         style="fill:none;stroke:#1a2e44;stroke-width:2.40808582;stroke-linecap:round;stroke-linejoin:round;stroke-miterlimit:4;stroke-dasharray:none;stroke-opacity:1" />
    </g>
    <g
       id="g1130"
       transform="translate(-69.416166,-50.484461)">
      <path
         style="fill:#aaffcc;stroke:none;stroke-width:0.26458332px;stroke-linecap:butt;stroke-linejoin:miter;stroke-opacity:1"
         d="m 713.48864,-700.68508 h 16.17011 l 6.22255,-4.81735 0.52589,-4.38234 -0.17529,-6.31055 0.87646,-6.31055 2.10352,-4.90824 3.74417,5.48939 v 0 l 6.50124,-3.45053 -0.77957,-5.89529 -2.0125,-5.58819 v 0 l 1.48661,-5.98117 -0.17529,-3.85646 -2.80468,-4.73292 -5.4341,-3.33057 -6.38497,-1.82362 -6.1335,-2.85766 v 0 H 715.9281 l -6.1335,2.85766 -6.51785,1.12244 -4.55763,2.27881 -2.2788,4.55763 -1.22706,5.08352 1.26889,6.68234 -1.61947,3.30936 -0.70117,2.80469 -0.47143,5.36943 6.50126,3.45053 2.20895,-3.03527 1.05175,-4.20703 0.87648,-0.17532 1.75292,7.53764 1.05177,2.97997 c 0,0 -0.17531,2.10352 -0.17531,2.80469 0,0.70117 -0.35057,5.95998 -0.35057,5.95998 l 0.35057,4.20703 z"
         id="path1106"
         inkscape:connector-curvature="0" />
      <g
         transform="translate(80.014788,-51.94809)"
         id="g1120">
        <path
           style="fill:none;stroke:#1a2e44;stroke-width:2.40808582;stroke-linecap:round;stroke-linejoin:round;stroke-miterlimit:4;stroke-dasharray:none;stroke-opacity:1"
           d="m 633.47385,-648.737 c 0,0 -4.87681,-2.37843 -6.22215,-5.54207 -1.34535,-3.16365 -0.0778,-7.96393 -0.17322,-11.51636 -0.0954,-3.55242 -3.7507,-7.56059 -2.88652,-17.50224 0,0 -0.13317,9.27784 -4.0154,13.32104"
           id="path1108"
           inkscape:connector-curvature="0"
           sodipodi:nodetypes="czzcc" />
        <path
           style="fill:none;stroke:#1a2e44;stroke-width:2.40808582;stroke-linecap:round;stroke-linejoin:round;stroke-miterlimit:4;stroke-dasharray:none;stroke-opacity:1"
           d="m 613.6753,-673.42718 c 0,-8.52647 2.79206,-11.48346 2.79206,-11.48346 -6.72529,-17.83368 13.31246,-19.72475 13.31246,-19.72475 0,0 1.32427,-2.55562 6.13349,-2.85765"
           id="path1110"
           inkscape:connector-curvature="0"
           sodipodi:nodetypes="cccc" />
        <path
           style="fill:none;stroke:#1a2e44;stroke-width:2.40808582;stroke-linecap:round;stroke-linejoin:round;stroke-miterlimit:4;stroke-dasharray:none;stroke-opacity:1"
           d="m 624.19196,-683.29767 c 0,0 0.65388,1.49326 2.01067,2.44141 3.8902,2.71857 12.04903,5.98874 15.35628,-3.98468"
           id="path1112"
           inkscape:connector-curvature="0"
           sodipodi:nodetypes="csc" />
        <path
           sodipodi:nodetypes="czzcc"
           inkscape:connector-curvature="0"
           id="path1114"
           d="m 649.64397,-648.737 c 0,0 4.8768,-2.37843 6.22215,-5.54207 1.34535,-3.16365 0.0778,-7.96393 0.17322,-11.51636 0.0954,-3.55242 3.7507,-7.56059 2.88652,-17.50224 0,0 0.13317,9.27784 4.0154,13.32104"
           style="fill:none;stroke:#1a2e44;stroke-width:2.40808582;stroke-linecap:round;stroke-linejoin:round;stroke-miterlimit:4;stroke-dasharray:none;stroke-opacity:1" />
        <path
           sodipodi:nodetypes="cccc"
           inkscape:connector-curvature="0"
           id="path1116"
           d="m 669.44252,-673.42718 c 0,-8.52647 -2.79207,-11.48346 -2.79207,-11.48346 6.7253,-17.83368 -13.31245,-19.72475 -13.31245,-19.72475 0,0 -1.32427,-2.55562 -6.13349,-2.85765"
           style="fill:none;stroke:#1a2e44;stroke-width:2.40808582;stroke-linecap:round;stroke-linejoin:round;stroke-miterlimit:4;stroke-dasharray:none;stroke-opacity:1" />
        <path
           sodipodi:nodetypes="csc"
           inkscape:connector-curvature="0"
           id="path1118"
           d="m 658.92586,-683.29767 c 0,0 -0.65388,1.49326 -2.01067,2.44141 -3.8902,2.71857 -12.04903,5.98874 -15.35628,-3.98468"
           style="fill:none;stroke:#1a2e44;stroke-width:2.40808582;stroke-linecap:round;stroke-linejoin:round;stroke-miterlimit:4;stroke-dasharray:none;stroke-opacity:1" />
      </g>
    </g>
    <circle
       style="opacity:1;fill:#ffb380;fill-opacity:1;stroke:none;stroke-width:5.43795681;stroke-linecap:square;stroke-linejoin:miter;stroke-miterlimit:4;stroke-dasharray:none;stroke-dashoffset:0;stroke-opacity:1"
       id="circle1138"
       cx="905.98224"
       cy="-630.49329"
       inkscape:export-filename="/home/erick/AndroidStudioProjects/AprendiendoEspanol/app/src/main/res/mipmap-hdpi/frases.png"
       inkscape:export-xdpi="31.15"
       inkscape:export-ydpi="31.15"
       r="53" />
    <g
       id="g1154"
       transform="translate(0.43200302,-0.78181691)">
      <rect
         y="-648.70013"
         x="883.76904"
         height="17.766609"
         width="17.766609"
         id="rect1136"
         style="opacity:1;fill:#800000;fill-opacity:1;stroke:none;stroke-width:7.11552191;stroke-linecap:round;stroke-linejoin:round;stroke-miterlimit:4;stroke-dasharray:none;stroke-dashoffset:0;stroke-opacity:1" />
      <path
         sodipodi:nodetypes="cc"
         inkscape:connector-curvature="0"
         id="path1140"
         d="m 896.64063,-635.95478 c 0,0 2.55658,12.42634 -9.80153,21.42478"
         style="fill:none;stroke:#800000;stroke-width:9.41906261;stroke-linecap:butt;stroke-linejoin:round;stroke-miterlimit:4;stroke-dasharray:none;stroke-opacity:1" />
      <rect
         style="opacity:1;fill:#800000;fill-opacity:1;stroke:none;stroke-width:7.11552191;stroke-linecap:round;stroke-linejoin:round;stroke-miterlimit:4;stroke-dasharray:none;stroke-dashoffset:0;stroke-opacity:1"
         id="rect1146"
         width="17.766609"
         height="17.766609"
         x="909.56482"
         y="-648.70013" />
      <path
         style="fill:none;stroke:#800000;stroke-width:9.41906261;stroke-linecap:butt;stroke-linejoin:round;stroke-miterlimit:4;stroke-dasharray:none;stroke-opacity:1"
         d="m 922.43638,-635.95478 c 0,0 2.55658,12.42634 -9.80153,21.42478"
         id="path1148"
         inkscape:connector-curvature="0"
         sodipodi:nodetypes="cc" />
    </g>
    <g
       id="g1225"
       transform="translate(0.14538536,1.5453714)"
       inkscape:export-filename="/home/erick/AndroidStudioProjects/AprendiendoEspanol/app/src/main/res/mipmap-hdpi/alimentos.png"
       inkscape:export-xdpi="31.15"
       inkscape:export-ydpi="31.15">
      <path
         sodipodi:nodetypes="zzzzzzzzzzzzzzzzz"
         inkscape:connector-curvature="0"
         id="path1194"
         d="m 905.11995,-789.93108 c -1.13509,-3.09221 -7.52378,-7.07668 -4.20485,-8.52869 3.31893,-1.45201 3.65253,-0.42257 4.5635,-1.65946 0.91097,-1.23688 -0.75367,-2.64949 0.20745,-4.35606 0.96111,-1.70657 3.81391,-1.52312 4.22878,-3.39001 0.41486,-1.86689 2.77261,0.62711 4.0685,-0.55123 1.29589,-1.17834 -1.04215,-6.3593 3.11147,-4.97835 4.15363,1.38095 7.71798,-2.92308 9.58488,-1.05618 1.86689,1.86688 1.87597,4.53544 5.81718,5.78002 3.94121,1.24459 2.43711,2.32885 3.47428,7.72209 1.03717,5.39323 1.03717,8.50468 1.65944,10.99388 0.62229,2.48919 -1.24461,9.54187 -2.07434,9.95674 -0.82972,0.41487 -2.28175,6.22297 -4.56351,7.0527 -2.28176,0.82972 -10.24755,1.42922 -13.48304,0.62227 -3.23549,-0.80694 -3.77816,-1.90392 -5.60069,-3.31891 -1.82252,-1.41498 -4.56349,-3.31889 -5.18578,-5.18578 -0.62229,-1.8669 -0.46819,-6.01083 -1.60327,-9.10303 z"
         style="fill:#44aa00;stroke:#007007;stroke-width:1.21845043;stroke-linecap:butt;stroke-linejoin:miter;stroke-miterlimit:4;stroke-dasharray:none;stroke-opacity:1" />
      <path
         sodipodi:nodetypes="czcscccczccc"
         inkscape:connector-curvature="0"
         id="path1192"
         d="m 922.80667,-800.8433 c 0,0 0.28294,1.65958 -0.0332,2.60247 -0.31611,0.94287 -0.36193,1.04213 -1.24371,2.4049 -0.8818,1.36278 -1.04213,2.48507 -1.04213,3.20653 0,0.72148 0.88179,3.92802 0.88179,3.92802 l 3.60739,11.54355 17.3955,-3.5272 -4.93124,-14.02931 c -0.82229,-2.40486 -2.21541,-4.28297 -3.11498,-4.89909 -0.89957,-0.61612 -2.85795,-1.01552 -3.74923,-1.80074 -0.49411,-0.92606 -1.01462,-1.57007 -1.01462,-1.57007 z"
         style="fill:#d5fff6;stroke:#128877;stroke-width:1.2482003;stroke-linecap:butt;stroke-linejoin:miter;stroke-miterlimit:4;stroke-dasharray:none;stroke-opacity:1" />
      <ellipse
         transform="rotate(15.614572)"
         ry="24.530067"
         rx="9.8601246"
         cy="-1017.2973"
         cx="697.58337"
         id="path1167"
         style="opacity:1;fill:#ffcd9a;fill-opacity:1;stroke:#ab5600;stroke-width:1.17964625;stroke-linecap:butt;stroke-linejoin:round;stroke-miterlimit:4;stroke-dasharray:none;stroke-dashoffset:0;stroke-opacity:1" />
      <path
         sodipodi:nodetypes="czc"
         inkscape:connector-curvature="0"
         id="path1169"
         d="m 940.06811,-785.24478 c 0,0 1.48287,-3.22948 4.62179,-2.8136 3.13892,0.41589 4.55064,-0.10529 5.35109,-2.36813"
         style="fill:none;stroke:#ab5600;stroke-width:2.1536305;stroke-linecap:round;stroke-linejoin:round;stroke-miterlimit:4;stroke-dasharray:none;stroke-opacity:1" />
      <path
         style="fill:none;stroke:#ab5600;stroke-width:2.1536305;stroke-linecap:round;stroke-linejoin:round;stroke-miterlimit:4;stroke-dasharray:none;stroke-opacity:1"
         d="m 941.8718,-793.10081 c 0,0 1.48288,-3.22948 4.6218,-2.8136 3.13892,0.41589 4.55064,-0.10529 5.35109,-2.36813"
         id="path1171"
         inkscape:connector-curvature="0"
         sodipodi:nodetypes="czc" />
      <path
         sodipodi:nodetypes="czc"
         inkscape:connector-curvature="0"
         id="path1173"
         d="m 943.51514,-801.63823 c 0,0 1.48288,-3.22947 4.6218,-2.8136 3.13892,0.41589 4.55064,-0.10529 5.35109,-2.36812"
         style="fill:none;stroke:#ab5600;stroke-width:2.1536305;stroke-linecap:round;stroke-linejoin:round;stroke-miterlimit:4;stroke-dasharray:none;stroke-opacity:1" />
      <path
         sodipodi:nodetypes="cccccc"
         inkscape:connector-curvature="0"
         id="path1178"
         d="m 900.64103,-778.98298 c 0,0 -4.39997,-10.39572 6.03368,-12.57151 2.04467,-3.22289 6.28079,-5.38754 9.46794,-2.09898 1.58713,1.70051 4.71215,5.08211 4.2587,9.27674 -0.47026,7.44403 -1.03636,9.64603 -8.51167,9.8275 -6.70607,-0.97448 -11.26715,-2.15342 -11.24865,-4.43375 z"
         style="fill:#ff3333;fill-opacity:1;stroke:#ab0700;stroke-width:1.2482003;stroke-linecap:butt;stroke-linejoin:miter;stroke-miterlimit:4;stroke-dasharray:none;stroke-opacity:1" />
      <path
         sodipodi:nodetypes="szzzzzsccccs"
         inkscape:connector-curvature="0"
         id="rect1175"
         d="m 898.62557,-782.71172 c -0.31268,-3.21511 3.75784,2.90851 6.462,3.06095 2.70417,0.15243 5.53296,-2.8928 8.61016,-2.94678 3.07721,-0.0539 5.25365,2.58436 8.96195,2.72004 3.70831,0.13568 8.54184,-2.89629 12.58391,-2.83421 4.04206,0.0621 7.57603,2.93976 10.99674,2.83421 3.42071,-0.10554 9.00628,-6.33129 8.72937,-2.83421 l -2.70329,34.14031 c -0.25512,4.00675 -2.49529,5.31192 -5.23251,5.31192 h -41.03939 c -2.40791,0 -3.89009,-3.18733 -4.15359,-6.38939 z"
         style="opacity:1;fill:#abc837;fill-opacity:1;stroke:#ca0064;stroke-width:2.1536305;stroke-linecap:round;stroke-linejoin:round;stroke-miterlimit:4;stroke-dasharray:none;stroke-dashoffset:0;stroke-opacity:1" />
      <path
         sodipodi:nodetypes="ccc"
         inkscape:connector-curvature="0"
         id="path1180"
         d="m 901.00628,-795.63577 c 0,0 3.47434,-0.80184 5.95184,4.08128 -0.98023,-5.60348 2.32406,-8.27591 2.32406,-8.27591"
         style="fill:none;stroke:#ab0700;stroke-width:1.2482003;stroke-linecap:round;stroke-linejoin:miter;stroke-miterlimit:4;stroke-dasharray:none;stroke-opacity:1" />
      <path
         inkscape:connector-curvature="0"
         id="path1182"
         d="m 906.33461,-762.0787 h 9.40958"
         style="fill:none;stroke:#ffffff;stroke-width:2.54167223;stroke-linecap:round;stroke-linejoin:round;stroke-miterlimit:4;stroke-dasharray:none;stroke-opacity:1" />
      <path
         sodipodi:nodetypes="cc"
         style="fill:none;stroke:#ffffff;stroke-width:2.54167223;stroke-linecap:round;stroke-linejoin:round;stroke-miterlimit:4;stroke-dasharray:none;stroke-opacity:1"
         d="M 906.16149,-756.63701 H 918.0713"
         id="path1184"
         inkscape:connector-curvature="0" />
      <path
         sodipodi:nodetypes="cc"
         inkscape:connector-curvature="0"
         id="path1186"
         d="m 906.01244,-751.08195 h 15.26887"
         style="fill:none;stroke:#ffffff;stroke-width:2.54167223;stroke-linecap:round;stroke-linejoin:round;stroke-miterlimit:4;stroke-dasharray:none;stroke-opacity:1" />
      <path
         style="fill:none;stroke:#ffffff;stroke-width:2.54167223;stroke-linecap:round;stroke-linejoin:round;stroke-miterlimit:4;stroke-dasharray:none;stroke-opacity:1"
         d="m 926.64552,-751.08195 h 3.13842"
         id="path1188"
         inkscape:connector-curvature="0"
         sodipodi:nodetypes="cc" />
      <rect
         transform="matrix(0.95427833,-0.2989195,0.28155003,0.95954655,0,0)"
         ry="1.3894873"
         y="-491.38022"
         x="1109.2915"
         height="3.0316086"
         width="10.326124"
         id="rect1190"
         style="opacity:1;fill:#d5fff6;fill-opacity:1;stroke:#128877;stroke-width:1.06012392;stroke-linecap:round;stroke-linejoin:round;stroke-miterlimit:4;stroke-dasharray:none;stroke-dashoffset:0;stroke-opacity:1" />
      <path
         style="fill:none;stroke:#128877;stroke-width:0.98950595;stroke-linecap:round;stroke-linejoin:round;stroke-miterlimit:4;stroke-dasharray:none;stroke-opacity:1"
         d="m 930.54758,-795.19294 c -3.13892,0.41589 -7.03571,0.45586 -7.83616,-1.80698"
         id="path1198"
         inkscape:connector-curvature="0"
         sodipodi:nodetypes="cc" />
    </g>
    <circle
       style="opacity:1;fill:#e9afaf;fill-opacity:1;stroke:none;stroke-width:5.43795681;stroke-linecap:square;stroke-linejoin:miter;stroke-miterlimit:4;stroke-dasharray:none;stroke-dashoffset:0;stroke-opacity:1"
       id="circle1139"
       cx="1068.6207"
       cy="-784.66351"
       inkscape:export-filename="/home/erick/AndroidStudioProjects/AprendiendoEspanol/app/src/main/res/mipmap-hdpi/alojamiento.png"
       inkscape:export-xdpi="31.15"
       inkscape:export-ydpi="31.15"
       r="53" />
    <g
       id="g1153"
       transform="matrix(1.0198511,0,0,1.0198511,-21.932693,17.341784)"
       inkscape:export-filename="/home/erick/AndroidStudioProjects/AprendiendoEspanol/app/src/main/res/mipmap-hdpi/alojamiento.png"
       inkscape:export-xdpi="31.15"
       inkscape:export-ydpi="31.15">
      <rect
         y="-815.97546"
         x="1047.2029"
         height="62.265179"
         width="44.246315"
         id="rect1240"
         style="opacity:1;fill:#ff6d3f;fill-opacity:1;stroke:none;stroke-width:0.74865931;stroke-linecap:round;stroke-linejoin:round;stroke-miterlimit:4;stroke-dasharray:none;stroke-dashoffset:0;stroke-opacity:1" />
      <rect
         ry="0"
         y="-819.07874"
         x="1044.35"
         height="6.0062876"
         width="49.95229"
         id="rect1238"
         style="opacity:1;fill:#d35933;fill-opacity:1;stroke:none;stroke-width:0.89036942;stroke-linecap:round;stroke-linejoin:round;stroke-miterlimit:4;stroke-dasharray:none;stroke-dashoffset:0;stroke-opacity:1" />
      <rect
         y="-772.52997"
         x="1063.3198"
         height="18.8197"
         width="12.012574"
         id="rect1242"
         style="opacity:1;fill:#ffffff;fill-opacity:1;stroke:none;stroke-width:0.83702654;stroke-linecap:round;stroke-linejoin:round;stroke-miterlimit:4;stroke-dasharray:none;stroke-dashoffset:0;stroke-opacity:1" />
      <g
         transform="matrix(0.80761524,0,0,0.80761524,220.83791,-54.789304)"
         id="g1253">
        <rect
           y="-932.34686"
           x="1033.2562"
           height="12.890914"
           width="7.684967"
           id="rect1244"
           style="opacity:1;fill:#ffffff;fill-opacity:1;stroke:none;stroke-width:0.55408669;stroke-linecap:round;stroke-linejoin:round;stroke-miterlimit:4;stroke-dasharray:none;stroke-dashoffset:0;stroke-opacity:1" />
        <rect
           style="opacity:1;fill:#ffffff;fill-opacity:1;stroke:none;stroke-width:0.55408669;stroke-linecap:round;stroke-linejoin:round;stroke-miterlimit:4;stroke-dasharray:none;stroke-dashoffset:0;stroke-opacity:1"
           id="rect1246"
           width="7.684967"
           height="12.890914"
           x="1046.7668"
           y="-932.34686" />
        <rect
           y="-932.34686"
           x="1060.2776"
           height="12.890914"
           width="7.684967"
           id="rect1248"
           style="opacity:1;fill:#ffffff;fill-opacity:1;stroke:none;stroke-width:0.55408669;stroke-linecap:round;stroke-linejoin:round;stroke-miterlimit:4;stroke-dasharray:none;stroke-dashoffset:0;stroke-opacity:1" />
      </g>
      <g
         id="g1261"
         transform="matrix(0.80761524,0,0,0.80761524,220.83791,-39.773589)">
        <rect
           style="opacity:1;fill:#ffffff;fill-opacity:1;stroke:none;stroke-width:0.55408669;stroke-linecap:round;stroke-linejoin:round;stroke-miterlimit:4;stroke-dasharray:none;stroke-dashoffset:0;stroke-opacity:1"
           id="rect1255"
           width="7.684967"
           height="12.890914"
           x="1033.2562"
           y="-932.34686" />
        <rect
           y="-932.34686"
           x="1046.7668"
           height="12.890914"
           width="7.684967"
           id="rect1257"
           style="opacity:1;fill:#ffffff;fill-opacity:1;stroke:none;stroke-width:0.55408669;stroke-linecap:round;stroke-linejoin:round;stroke-miterlimit:4;stroke-dasharray:none;stroke-dashoffset:0;stroke-opacity:1" />
        <rect
           style="opacity:1;fill:#ffffff;fill-opacity:1;stroke:none;stroke-width:0.55408669;stroke-linecap:round;stroke-linejoin:round;stroke-miterlimit:4;stroke-dasharray:none;stroke-dashoffset:0;stroke-opacity:1"
           id="rect1259"
           width="7.684967"
           height="12.890914"
           x="1060.2776"
           y="-932.34686" />
      </g>
      <path
         inkscape:connector-curvature="0"
         id="path1263"
         d="m 1069.3262,-775.75834 a 9.3435906,9.3435906 0 0 0 -9.3281,9.03431 h 18.6608 a 9.3435906,9.3435906 0 0 0 -9.3327,-9.03431 z"
         style="opacity:1;fill:#ffff00;fill-opacity:1;stroke:none;stroke-width:0.60257947;stroke-linecap:round;stroke-linejoin:round;stroke-miterlimit:4;stroke-dasharray:none;stroke-dashoffset:0;stroke-opacity:1" />
    </g>
    <g
       id="g4933"
       transform="translate(-3.4960938e-5,2.8278503e-5)"
       inkscape:export-filename="/home/erick/AndroidStudioProjects/AprendiendoEspanol/app/src/main/res/mipmap-hdpi/familia.png"
       inkscape:export-xdpi="31.15"
       inkscape:export-ydpi="31.15">
      <circle
         style="opacity:1;fill:#008066;fill-opacity:1;stroke:none;stroke-width:1.17656863;stroke-linecap:round;stroke-linejoin:round;stroke-miterlimit:4;stroke-dasharray:none;stroke-dashoffset:0;stroke-opacity:1"
         id="circle4907"
         cx="1047.6482"
         cy="-1018.2363"
         r="8.6124172" />
      <path
         inkscape:connector-curvature="0"
         id="path4909"
         d="m 1047.6631,-1008.4753 a 24.306157,24.306157 0 0 0 -20.1569,10.73905 c 0.7957,-0.015 1.6023,-0.022 2.4209,-0.022 h 37.8633 a 24.306157,24.306157 0 0 0 -20.1273,-10.71765 z"
         style="opacity:1;fill:#008066;fill-opacity:1;stroke:none;stroke-width:3.32053804;stroke-linecap:round;stroke-linejoin:round;stroke-miterlimit:4;stroke-dasharray:none;stroke-dashoffset:0;stroke-opacity:1" />
      <circle
         style="opacity:1;fill:#005522;fill-opacity:1;stroke:none;stroke-width:1.17656863;stroke-linecap:round;stroke-linejoin:round;stroke-miterlimit:4;stroke-dasharray:none;stroke-dashoffset:0;stroke-opacity:1"
         id="circle4896"
         cx="1026.2128"
         cy="-1011.7291"
         r="8.6124172" />
      <path
         inkscape:connector-curvature="0"
         id="circle4898"
         d="m 1026.2276,-1001.9682 a 24.306157,24.306157 0 0 0 -20.1568,10.73913 c 0.7956,-0.0154 1.6023,-0.0216 2.4209,-0.0216 h 37.8633 a 24.306157,24.306157 0 0 0 -20.1274,-10.71773 z"
         style="opacity:1;fill:#005522;fill-opacity:1;stroke:none;stroke-width:3.32053804;stroke-linecap:round;stroke-linejoin:round;stroke-miterlimit:4;stroke-dasharray:none;stroke-dashoffset:0;stroke-opacity:1" />
      <circle
         r="8.6124172"
         cy="-1011.7291"
         cx="1071.7629"
         id="circle4903"
         style="opacity:1;fill:#005522;fill-opacity:1;stroke:none;stroke-width:1.17656863;stroke-linecap:round;stroke-linejoin:round;stroke-miterlimit:4;stroke-dasharray:none;stroke-dashoffset:0;stroke-opacity:1" />
      <path
         style="opacity:1;fill:#005522;fill-opacity:1;stroke:none;stroke-width:3.32053804;stroke-linecap:round;stroke-linejoin:round;stroke-miterlimit:4;stroke-dasharray:none;stroke-dashoffset:0;stroke-opacity:1"
         d="m 1071.7778,-1001.9682 a 24.306157,24.306157 0 0 0 -20.1569,10.73913 c 0.7957,-0.0154 1.6023,-0.0216 2.421,-0.0216 h 37.8632 a 24.306157,24.306157 0 0 0 -20.1273,-10.71773 z"
         id="path4905"
         inkscape:connector-curvature="0" />
    </g>
    <path
       style="opacity:1;fill:#ff0000;fill-opacity:1;stroke:none;stroke-width:0.53360909;stroke-linecap:round;stroke-linejoin:round;stroke-miterlimit:4;stroke-dasharray:none;stroke-dashoffset:0;stroke-opacity:1"
       d="m 1209.9196,-1037.629 c 0,17.6267 -18.1673,30.1158 -31.9159,38.05365 -13.4693,-7.77655 -31.9158,-20.42695 -31.9158,-38.05365 0,-17.6266 15.9375,-23.589 31.9158,-7.6107 17.6775,-17.6774 31.9159,-10.0159 31.9159,7.6107 z"
       id="path4935"
       inkscape:connector-curvature="0"
       sodipodi:nodetypes="ccccc" />
  </g>
</svg>
